\contentsline {section}{\numberline {1}Log}{1}{section.1}% 
\contentsline {subsubsection}{\numberline {1.0.1}2020-05-04 Mon 14:36}{1}{subsubsection.1.0.1}% 
\contentsline {subsubsection}{\numberline {1.0.2}2020-04-26 Sun 09:58}{2}{subsubsection.1.0.2}% 
\contentsline {subsubsection}{\numberline {1.0.3}2020-04-21 Wed 15:16}{3}{subsubsection.1.0.3}% 
\contentsline {subsubsection}{\numberline {1.0.4}2020-04-15 Wed 19:27}{3}{subsubsection.1.0.4}% 
\contentsline {subsubsection}{\numberline {1.0.5}2020-04-14 Tue 19:27}{3}{subsubsection.1.0.5}% 
\contentsline {subsubsection}{\numberline {1.0.6}2020-04-13 Mon 13:27}{3}{subsubsection.1.0.6}% 
\contentsline {subsubsection}{\numberline {1.0.7}2020-04-06 Mon 12:09}{3}{subsubsection.1.0.7}% 
\contentsline {subsubsection}{\numberline {1.0.8}2020-04-05 Sun 13:09}{3}{subsubsection.1.0.8}% 
\contentsline {subsubsection}{\numberline {1.0.9}2020-04-02 Thu 10:09}{3}{subsubsection.1.0.9}% 
\contentsline {subsubsection}{\numberline {1.0.10}2020-03-31 Tue 3:15}{3}{subsubsection.1.0.10}% 
\contentsline {subsubsection}{\numberline {1.0.11}2020-03-29 Sun 8:15}{3}{subsubsection.1.0.11}% 
\contentsline {subsubsection}{\numberline {1.0.12}2020-03-27 Thu 09:10}{4}{subsubsection.1.0.12}% 
\contentsline {subsubsection}{\numberline {1.0.13}2020-03-22 Sat 09:58}{4}{subsubsection.1.0.13}% 
\contentsline {subsubsection}{\numberline {1.0.14}\#\#\# 2020-03-20 Fri 14:05}{4}{subsubsection.1.0.14}% 
