\relax 
\providecommand\hyper@newdestlabel[2]{}
\bibstyle{gbt7714-unsrt}
\providecommand\HyperFirstAtBeginDocument{\AtBeginDocument}
\HyperFirstAtBeginDocument{\ifx\hyper@anchor\@undefined
\global\let\oldcontentsline\contentsline
\gdef\contentsline#1#2#3#4{\oldcontentsline{#1}{#2}{#3}}
\global\let\oldnewlabel\newlabel
\gdef\newlabel#1#2{\newlabelxx{#1}#2}
\gdef\newlabelxx#1#2#3#4#5#6{\oldnewlabel{#1}{{#2}{#3}}}
\AtEndDocument{\ifx\hyper@anchor\@undefined
\let\contentsline\oldcontentsline
\let\newlabel\oldnewlabel
\fi}
\fi}
\global\let\hyper@last\relax 
\gdef\HyperFirstAtBeginDocument#1{#1}
\providecommand\HyField@AuxAddToFields[1]{}
\providecommand\HyField@AuxAddToCoFields[2]{}
\gdef \LT@i {\LT@entry 
    {1}{52.9473pt}\LT@entry 
    {1}{71.75052pt}\LT@entry 
    {1}{58.9473pt}\LT@entry 
    {1}{58.9473pt}\LT@entry 
    {1}{71.75052pt}\LT@entry 
    {1}{104.16019pt}}
\@writefile{toc}{\contentsline {section}{\numberline {1}Log}{1}{section.1}\protected@file@percent }
\newlabel{log}{{1}{1}{Log}{section.1}{}}
\@writefile{toc}{\contentsline {subsubsection}{\numberline {1.0.1}2020-05-04 Mon 14:36}{1}{subsubsection.1.0.1}\protected@file@percent }
\newlabel{mon-1436}{{1.0.1}{1}{2020-05-04 Mon 14:36}{subsubsection.1.0.1}{}}
\@writefile{toc}{\contentsline {subsubsection}{\numberline {1.0.2}2020-04-26 Sun 09:58}{2}{subsubsection.1.0.2}\protected@file@percent }
\newlabel{sun-0958}{{1.0.2}{2}{2020-04-26 Sun 09:58}{subsubsection.1.0.2}{}}
\@writefile{toc}{\contentsline {subsubsection}{\numberline {1.0.3}2020-04-21 Wed 15:16}{3}{subsubsection.1.0.3}\protected@file@percent }
\newlabel{wed-1516}{{1.0.3}{3}{2020-04-21 Wed 15:16}{subsubsection.1.0.3}{}}
\@writefile{toc}{\contentsline {subsubsection}{\numberline {1.0.4}2020-04-15 Wed 19:27}{3}{subsubsection.1.0.4}\protected@file@percent }
\newlabel{wed-1927}{{1.0.4}{3}{2020-04-15 Wed 19:27}{subsubsection.1.0.4}{}}
\@writefile{toc}{\contentsline {subsubsection}{\numberline {1.0.5}2020-04-14 Tue 19:27}{3}{subsubsection.1.0.5}\protected@file@percent }
\newlabel{tue-1927}{{1.0.5}{3}{2020-04-14 Tue 19:27}{subsubsection.1.0.5}{}}
\@writefile{toc}{\contentsline {subsubsection}{\numberline {1.0.6}2020-04-13 Mon 13:27}{3}{subsubsection.1.0.6}\protected@file@percent }
\newlabel{mon-1327}{{1.0.6}{3}{2020-04-13 Mon 13:27}{subsubsection.1.0.6}{}}
\@writefile{toc}{\contentsline {subsubsection}{\numberline {1.0.7}2020-04-06 Mon 12:09}{3}{subsubsection.1.0.7}\protected@file@percent }
\newlabel{mon-1209}{{1.0.7}{3}{2020-04-06 Mon 12:09}{subsubsection.1.0.7}{}}
\@writefile{toc}{\contentsline {subsubsection}{\numberline {1.0.8}2020-04-05 Sun 13:09}{3}{subsubsection.1.0.8}\protected@file@percent }
\newlabel{sun-1309}{{1.0.8}{3}{2020-04-05 Sun 13:09}{subsubsection.1.0.8}{}}
\@writefile{toc}{\contentsline {subsubsection}{\numberline {1.0.9}2020-04-02 Thu 10:09}{3}{subsubsection.1.0.9}\protected@file@percent }
\newlabel{thu-1009}{{1.0.9}{3}{2020-04-02 Thu 10:09}{subsubsection.1.0.9}{}}
\@writefile{toc}{\contentsline {subsubsection}{\numberline {1.0.10}2020-03-31 Tue 3:15}{3}{subsubsection.1.0.10}\protected@file@percent }
\newlabel{tue-315}{{1.0.10}{3}{2020-03-31 Tue 3:15}{subsubsection.1.0.10}{}}
\@writefile{toc}{\contentsline {subsubsection}{\numberline {1.0.11}2020-03-29 Sun 8:15}{3}{subsubsection.1.0.11}\protected@file@percent }
\newlabel{sun-815}{{1.0.11}{3}{2020-03-29 Sun 8:15}{subsubsection.1.0.11}{}}
\@writefile{toc}{\contentsline {subsubsection}{\numberline {1.0.12}2020-03-27 Thu 09:10}{4}{subsubsection.1.0.12}\protected@file@percent }
\newlabel{thu-0910}{{1.0.12}{4}{2020-03-27 Thu 09:10}{subsubsection.1.0.12}{}}
\@writefile{toc}{\contentsline {subsubsection}{\numberline {1.0.13}2020-03-22 Sat 09:58}{4}{subsubsection.1.0.13}\protected@file@percent }
\newlabel{sat-0958}{{1.0.13}{4}{2020-03-22 Sat 09:58}{subsubsection.1.0.13}{}}
\@writefile{toc}{\contentsline {subsubsection}{\numberline {1.0.14}\#\#\# 2020-03-20 Fri 14:05}{4}{subsubsection.1.0.14}\protected@file@percent }
\newlabel{fri-1405}{{1.0.14}{4}{\#\#\# 2020-03-20 Fri 14:05}{subsubsection.1.0.14}{}}
