term,CEPU1,CEPU2,CEPU3
作者,"Baker S R, Bloom N, Davis S J","Steven J. Davis, Dingqian Liu and Xuguang S.","Huang Y, Luk P."
经济术语,economy、economic,经济、商业,经济、金融
不确定术语,uncertain、uncertainty,不确定、不明确、不明朗、未明、难料、难以预计、难以估计、难以预测、未知,"不确定、不明确、波动、震荡、动荡
、不稳、未明、不明朗、不清晰、未清晰"
政策术语,"policy、spending、budget、political、
interest rates、reform and government、
Beijing、authorities、tax、regulation、
regulatory、central bank、
People's Bank of China、
PBOC、deficit、WTO","财政、货币、证监会、银监会、财政部、
人民银行、国家发改委、开放、改革、商务部、法律、法规、税收、国债、政府债务、央行、外经贸部、关税、政府赤字","政策、制度、体制、战略、措施
、规章、规例、条例政治、执政、政府、政委、国务院、人大、人民代表大会、中央、国家主席、总书记、国家领导人、总理、改革、整改、整治、规管、监管、财政、税、人民银行、央行、赤字、利率"
样本量,250,250,250
均值,219.6412,122.9760,117.1809
标准差,221.3139,102.2758,39.5620
中位数,131.5040,96.2543,122.2971
最小值,9.0667,10.1113,38.1961
最大值,970.8298,649.0725,238.3172
