"","model1","model2","model3","mode4","model5","model6","model7"
"K","12","18","18","24","12","18","18"
"K_two","-","-","-","-","24","18","24"
"mu","0.033189 **","0.038153 ***","0.038549 ***","0.040708 ***","0.043086 ***","0.040133 ***","0.046523 ***"
"mu_std","( 0.013748 )","( 0.013737 )","( 0.013589 )","( 0.013819 )","( 0.0139 )","( 0.013836 )","( 0.013725 )"
"alpha","0","0","0.011714","0.012516","2e-06","0","0"
"alpha_std","( 0.028841 )","( 0.029659 )","( 0.02182 )","( 0.011872 )","( 0.032509 )","( 0.030266 )","( 0.031952 )"
"beta","0.800072 ***","0.787484 ***","0.823226 ***","0.816447 ***","0.809394 ***","0.807284 ***","0.799293 ***"
"beta_std","( 0.031356 )","( 0.025436 )","( 0.004188 )","( 0.000621 )","( 0.023331 )","( 0.02549 )","( 0.023703 )"
"gamma","0.28832 ***","0.3034 ***","0.259401 ***","0.260004 ***","0.256389 ***","0.272438 ***","0.269015 ***"
"gamma_std","( 0.05696 )","( 0.049723 )","( 0.036128 )","( 0.001737 )","( 0.046168 )","( 0.049582 )","( 0.046029 )"
"m","-0.362863 *","-0.413963 **","-0.789104","-0.919597","-1.018568 *","-0.784939","-0.852804"
"m_std","( 0.209477 )","( 0.186614 )","( 0.52524 )","( 0.568302 )","( 0.573742 )","( 0.556532 )","( 0.571231 )"
"theta","123.899538 ***","132.126358 ***","0.006559 *","0.006915 **","113.706914 ***","122.367064 ***","125.247328 ***"
"theta_std","( 20.666242 )","( 19.712054 )","( 0.003417 )","( 0.003303 )","( 24.541774 )","( 22.946296 )","( 21.557254 )"
"w2","2.194008 ***","3.350188 ***","6.170229","8.421921","2.034774 ***","3.18885 ***","3.220142 ***"
"w2_std","( 0.592654 )","( 0.818573 )","( 7.224363 )","( 9.157023 )","( 0.688612 )","( 0.921738 )","( 0.981684 )"
"theta.two","-","-","-","-","0.003901","0.002688","0.002427"
"theta_two_std","-","-","-","-","( 0.00417 )","( 0.004095 )","( 0.004096 )"
"w2.two","-","-","-","-","1.742172","1.389334","1.659662"
"w2_two_std","-","-","-","-","( 1.391687 )","( 1.21933 )","( 1.759248 )"
"llh","-3987.956993","-3782.168416","-3799.214369","-3505.10604","-3489.468861","-3783.467275","-3488.541203"
"bic","8031.914086","7620.059097","7654.151004","7065.629733","7050.188989","7638.577463","7048.333673"
