model,model1,model2,model3,model4,model5,model6
K,36,18,12,36,36,12
$K_2$,-,-,-,18,12,18
$\mu$,0.0420***,0.0362***,0.0376**,0.0415***,0.0413***,0.0363***
,0.0138,0.014,0.0146,0.0138,0.0139,0.014
$\alpha$,0,0.0117,0.0451*,0,0,0.0147***
,0.0322,0.0083,0.0241,0.0325,0.0325,0.0011
$\beta$,0.7732***,0.8197***,0.8226***,0.7768***,0.7690***,0.8185***
,0.032,0.0005,0.0034,0.0336,0.0334,0
$\gamma$,0.2964***,0.2594***,0.2086***,0.2915***,0.3028***,0.2584***
,0.0564,0.0038,0.0365,0.0569,0.0573,0.0193
m,-0.6855***,-1.1984**,-0.355,-0.9123*,-0.6078***,-0.0731
,0.1888,0.5009,0.7523,0.5419,0.2015,0.8072
$\theta$,0.3948***,0.0095***,0.0042,0.3334**,0.3937***,-0.0089
,0.0945,0.003,0.0052,0.1349,0.0942,0.0067
$\omega_2$,4.9608***,5.0699*,4.9418**,5.2965***,5.0098***,1
,1.4031,2.9523,2.4748,1.8084,1.4277,1.9671
$\theta_2$,-,-,-,0.0022,-0.0005,0.0107***
,-,-,-,0.0044,0.0006,0.0037
$\omega_2$2,-,-,-,2.2771,1.0001,4.3333*
,-,-,-,2.1599,1.5557,2.5813
llh,-3132.7485,-3872.63,-4091.6756,-3132.3586,-3132.6439,-3871.0634
bic,6320.3875,7801.072,8239.4376,6335.2907,6335.8613,7813.8853
