"","x"
"1",NA
"2",NA
"3",NA
"4",NA
"5",NA
"6",NA
"7",NA
"8",NA
"9",NA
"10",NA
"11",NA
"12",NA
"13",NA
"14",NA
"15",NA
"16",NA
"17",NA
"18",NA
"19",NA
"20",NA
"21",NA
"22",NA
"23",NA
"24",NA
"25",NA
"26",NA
"27",NA
"28",NA
"29",NA
"30",NA
"31",NA
"32",NA
"33",NA
"34",NA
"35",NA
"36",NA
"37",NA
"38",NA
"39",NA
"40",NA
"41",NA
"42",NA
"43",NA
"44",NA
"45",NA
"46",NA
"47",NA
"48",NA
"49",NA
"50",NA
"51",NA
"52",NA
"53",NA
"54",NA
"55",NA
"56",NA
"57",NA
"58",NA
"59",NA
"60",NA
"61",NA
"62",NA
"63",NA
"64",NA
"65",NA
"66",NA
"67",NA
"68",NA
"69",NA
"70",NA
"71",NA
"72",NA
"73",NA
"74",NA
"75",NA
"76",NA
"77",NA
"78",NA
"79",NA
"80",NA
"81",NA
"82",NA
"83",NA
"84",NA
"85",NA
"86",NA
"87",NA
"88",NA
"89",NA
"90",NA
"91",NA
"92",NA
"93",NA
"94",NA
"95",NA
"96",NA
"97",NA
"98",NA
"99",NA
"100",NA
"101",NA
"102",NA
"103",NA
"104",NA
"105",NA
"106",NA
"107",NA
"108",NA
"109",NA
"110",NA
"111",NA
"112",NA
"113",NA
"114",NA
"115",NA
"116",NA
"117",NA
"118",NA
"119",NA
"120",NA
"121",NA
"122",NA
"123",NA
"124",NA
"125",NA
"126",NA
"127",NA
"128",NA
"129",NA
"130",NA
"131",NA
"132",NA
"133",NA
"134",NA
"135",NA
"136",NA
"137",NA
"138",NA
"139",NA
"140",NA
"141",NA
"142",NA
"143",NA
"144",NA
"145",NA
"146",NA
"147",NA
"148",NA
"149",NA
"150",NA
"151",NA
"152",NA
"153",NA
"154",NA
"155",NA
"156",NA
"157",NA
"158",NA
"159",NA
"160",NA
"161",NA
"162",NA
"163",NA
"164",NA
"165",NA
"166",NA
"167",NA
"168",NA
"169",NA
"170",NA
"171",NA
"172",NA
"173",NA
"174",NA
"175",NA
"176",NA
"177",NA
"178",NA
"179",NA
"180",NA
"181",NA
"182",NA
"183",NA
"184",NA
"185",NA
"186",NA
"187",NA
"188",NA
"189",NA
"190",NA
"191",NA
"192",NA
"193",NA
"194",NA
"195",NA
"196",NA
"197",NA
"198",NA
"199",NA
"200",NA
"201",NA
"202",NA
"203",NA
"204",NA
"205",NA
"206",NA
"207",NA
"208",NA
"209",NA
"210",NA
"211",NA
"212",NA
"213",NA
"214",NA
"215",NA
"216",NA
"217",NA
"218",NA
"219",NA
"220",NA
"221",NA
"222",NA
"223",NA
"224",NA
"225",NA
"226",NA
"227",NA
"228",NA
"229",NA
"230",NA
"231",NA
"232",NA
"233",NA
"234",NA
"235",NA
"236",NA
"237",NA
"238",NA
"239",NA
"240",NA
"241",NA
"242",NA
"243",NA
"244",NA
"245",NA
"246",NA
"247",NA
"248",NA
"249",NA
"250",NA
"251",NA
"252",NA
"253",NA
"254",NA
"255",NA
"256",NA
"257",NA
"258",NA
"259",NA
"260",NA
"261",NA
"262",NA
"263",NA
"264",NA
"265",NA
"266",NA
"267",NA
"268",NA
"269",NA
"270",NA
"271",NA
"272",NA
"273",NA
"274",NA
"275",NA
"276",NA
"277",NA
"278",NA
"279",NA
"280",NA
"281",NA
"282",NA
"283",NA
"284",NA
"285",NA
"286",NA
"287",NA
"288",NA
"289",NA
"290",NA
"291",NA
"292",NA
"293",NA
"294",NA
"295",NA
"296",NA
"297",NA
"298",NA
"299",NA
"300",NA
"301",NA
"302",NA
"303",NA
"304",NA
"305",NA
"306",NA
"307",NA
"308",NA
"309",NA
"310",NA
"311",NA
"312",NA
"313",NA
"314",NA
"315",NA
"316",NA
"317",NA
"318",NA
"319",NA
"320",NA
"321",NA
"322",NA
"323",NA
"324",NA
"325",NA
"326",NA
"327",NA
"328",NA
"329",NA
"330",NA
"331",NA
"332",NA
"333",NA
"334",NA
"335",NA
"336",NA
"337",NA
"338",NA
"339",NA
"340",NA
"341",NA
"342",NA
"343",NA
"344",NA
"345",NA
"346",NA
"347",NA
"348",NA
"349",NA
"350",NA
"351",NA
"352",NA
"353",NA
"354",NA
"355",NA
"356",NA
"357",NA
"358",NA
"359",NA
"360",NA
"361",NA
"362",NA
"363",NA
"364",NA
"365",NA
"366",NA
"367",NA
"368",NA
"369",NA
"370",NA
"371",NA
"372",NA
"373",NA
"374",NA
"375",NA
"376",NA
"377",NA
"378",NA
"379",NA
"380",NA
"381",NA
"382",NA
"383",NA
"384",NA
"385",NA
"386",NA
"387",NA
"388",NA
"389",NA
"390",NA
"391",NA
"392",NA
"393",NA
"394",NA
"395",NA
"396",NA
"397",NA
"398",NA
"399",NA
"400",NA
"401",NA
"402",NA
"403",NA
"404",NA
"405",NA
"406",NA
"407",NA
"408",NA
"409",NA
"410",NA
"411",NA
"412",NA
"413",NA
"414",NA
"415",NA
"416",NA
"417",NA
"418",NA
"419",NA
"420",NA
"421",NA
"422",NA
"423",NA
"424",NA
"425",NA
"426",NA
"427",NA
"428",NA
"429",NA
"430",NA
"431",NA
"432",NA
"433",NA
"434",NA
"435",NA
"436",NA
"437",NA
"438",NA
"439",NA
"440",NA
"441",NA
"442",NA
"443",NA
"444",NA
"445",NA
"446",NA
"447",NA
"448",NA
"449",NA
"450",NA
"451",NA
"452",NA
"453",NA
"454",NA
"455",NA
"456",NA
"457",NA
"458",NA
"459",NA
"460",NA
"461",NA
"462",NA
"463",NA
"464",NA
"465",NA
"466",NA
"467",NA
"468",NA
"469",NA
"470",NA
"471",NA
"472",NA
"473",NA
"474",NA
"475",NA
"476",NA
"477",NA
"478",NA
"479",NA
"480",NA
"481",NA
"482",NA
"483",NA
"484",NA
"485",NA
"486",NA
"487",NA
"488",NA
"489",NA
"490",NA
"491",NA
"492",NA
"493",NA
"494",NA
"495",NA
"496",NA
"497",NA
"498",NA
"499",NA
"500",NA
"501",NA
"502",NA
"503",NA
"504",NA
"505",NA
"506",NA
"507",NA
"508",NA
"509",NA
"510",NA
"511",NA
"512",NA
"513",NA
"514",NA
"515",NA
"516",NA
"517",NA
"518",NA
"519",NA
"520",NA
"521",NA
"522",NA
"523",NA
"524",NA
"525",NA
"526",NA
"527",NA
"528",NA
"529",NA
"530",NA
"531",NA
"532",NA
"533",NA
"534",NA
"535",NA
"536",NA
"537",NA
"538",NA
"539",NA
"540",NA
"541",NA
"542",NA
"543",NA
"544",NA
"545",NA
"546",NA
"547",NA
"548",NA
"549",NA
"550",NA
"551",NA
"552",NA
"553",NA
"554",NA
"555",NA
"556",NA
"557",NA
"558",NA
"559",NA
"560",NA
"561",NA
"562",NA
"563",NA
"564",NA
"565",NA
"566",NA
"567",NA
"568",NA
"569",NA
"570",NA
"571",NA
"572",NA
"573",NA
"574",NA
"575",NA
"576",NA
"577",NA
"578",NA
"579",NA
"580",NA
"581",NA
"582",NA
"583",NA
"584",NA
"585",NA
"586",NA
"587",NA
"588",NA
"589",NA
"590",NA
"591",NA
"592",NA
"593",NA
"594",NA
"595",NA
"596",NA
"597",NA
"598",NA
"599",NA
"600",NA
"601",NA
"602",NA
"603",NA
"604",NA
"605",NA
"606",NA
"607",NA
"608",NA
"609",NA
"610",NA
"611",NA
"612",NA
"613",NA
"614",NA
"615",NA
"616",NA
"617",NA
"618",NA
"619",NA
"620",NA
"621",NA
"622",NA
"623",NA
"624",NA
"625",NA
"626",NA
"627",NA
"628",NA
"629",NA
"630",NA
"631",NA
"632",NA
"633",NA
"634",NA
"635",NA
"636",NA
"637",NA
"638",NA
"639",NA
"640",NA
"641",NA
"642",NA
"643",NA
"644",NA
"645",NA
"646",NA
"647",NA
"648",NA
"649",NA
"650",NA
"651",NA
"652",NA
"653",NA
"654",NA
"655",NA
"656",NA
"657",NA
"658",NA
"659",NA
"660",NA
"661",NA
"662",NA
"663",NA
"664",NA
"665",NA
"666",NA
"667",NA
"668",NA
"669",NA
"670",NA
"671",NA
"672",NA
"673",NA
"674",NA
"675",NA
"676",NA
"677",NA
"678",NA
"679",NA
"680",NA
"681",NA
"682",NA
"683",NA
"684",NA
"685",NA
"686",NA
"687",NA
"688",NA
"689",NA
"690",NA
"691",NA
"692",NA
"693",NA
"694",NA
"695",NA
"696",NA
"697",NA
"698",NA
"699",NA
"700",NA
"701",NA
"702",NA
"703",NA
"704",NA
"705",NA
"706",NA
"707",NA
"708",NA
"709",1.47336034311101
"710",1.47336034311101
"711",1.47336034311101
"712",1.47336034311101
"713",1.47336034311101
"714",1.47336034311101
"715",1.47336034311101
"716",1.47336034311101
"717",1.47336034311101
"718",1.47336034311101
"719",1.47336034311101
"720",1.47336034311101
"721",1.47336034311101
"722",1.47336034311101
"723",1.47336034311101
"724",1.47336034311101
"725",1.47336034311101
"726",1.47336034311101
"727",1.47336034311101
"728",1.31392826069456
"729",1.31392826069456
"730",1.31392826069456
"731",1.31392826069456
"732",1.31392826069456
"733",1.31392826069456
"734",1.31392826069456
"735",1.31392826069456
"736",1.31392826069456
"737",1.31392826069456
"738",1.31392826069456
"739",1.31392826069456
"740",1.31392826069456
"741",1.31392826069456
"742",1.31392826069456
"743",1.20905650294091
"744",1.20905650294091
"745",1.20905650294091
"746",1.20905650294091
"747",1.20905650294091
"748",1.20905650294091
"749",1.20905650294091
"750",1.20905650294091
"751",1.20905650294091
"752",1.20905650294091
"753",1.20905650294091
"754",1.20905650294091
"755",1.20905650294091
"756",1.20905650294091
"757",1.20905650294091
"758",1.20905650294091
"759",1.20905650294091
"760",1.20905650294091
"761",1.20905650294091
"762",1.20905650294091
"763",1.20905650294091
"764",1.20905650294091
"765",1.20905650294091
"766",1.06751850918908
"767",1.06751850918908
"768",1.06751850918908
"769",1.06751850918908
"770",1.06751850918908
"771",1.06751850918908
"772",1.06751850918908
"773",1.06751850918908
"774",1.06751850918908
"775",1.06751850918908
"776",1.06751850918908
"777",1.06751850918908
"778",1.06751850918908
"779",1.06751850918908
"780",1.06751850918908
"781",1.06751850918908
"782",1.06751850918908
"783",1.06751850918908
"784",1.06751850918908
"785",1.06751850918908
"786",0.990012559471378
"787",0.990012559471378
"788",0.990012559471378
"789",0.990012559471378
"790",0.990012559471378
"791",0.990012559471378
"792",0.990012559471378
"793",0.990012559471378
"794",0.990012559471378
"795",0.990012559471378
"796",0.990012559471378
"797",0.990012559471378
"798",0.990012559471378
"799",0.990012559471378
"800",0.990012559471378
"801",0.990012559471378
"802",0.990012559471378
"803",0.990012559471378
"804",0.990012559471378
"805",1.10108242318056
"806",1.10108242318056
"807",1.10108242318056
"808",1.10108242318056
"809",1.10108242318056
"810",1.10108242318056
"811",1.10108242318056
"812",1.10108242318056
"813",1.10108242318056
"814",1.10108242318056
"815",1.10108242318056
"816",1.10108242318056
"817",1.10108242318056
"818",1.10108242318056
"819",1.10108242318056
"820",1.10108242318056
"821",1.10108242318056
"822",1.10108242318056
"823",1.10108242318056
"824",1.12238122426717
"825",1.12238122426717
"826",1.12238122426717
"827",1.12238122426717
"828",1.12238122426717
"829",1.12238122426717
"830",1.12238122426717
"831",1.12238122426717
"832",1.12238122426717
"833",1.12238122426717
"834",1.12238122426717
"835",1.12238122426717
"836",1.12238122426717
"837",1.12238122426717
"838",1.12238122426717
"839",1.12238122426717
"840",1.12238122426717
"841",1.12238122426717
"842",1.12238122426717
"843",1.12238122426717
"844",1.12238122426717
"845",1.08194328360316
"846",1.08194328360316
"847",1.08194328360316
"848",1.08194328360316
"849",1.08194328360316
"850",1.08194328360316
"851",1.08194328360316
"852",1.08194328360316
"853",1.08194328360316
"854",1.08194328360316
"855",1.08194328360316
"856",1.08194328360316
"857",1.08194328360316
"858",1.08194328360316
"859",1.08194328360316
"860",1.08194328360316
"861",1.08194328360316
"862",1.08194328360316
"863",1.08194328360316
"864",1.08194328360316
"865",1.08194328360316
"866",1.08194328360316
"867",1.03143941710164
"868",1.03143941710164
"869",1.03143941710164
"870",1.03143941710164
"871",1.03143941710164
"872",1.03143941710164
"873",1.03143941710164
"874",1.03143941710164
"875",1.03143941710164
"876",1.03143941710164
"877",1.03143941710164
"878",1.03143941710164
"879",1.03143941710164
"880",1.03143941710164
"881",1.03143941710164
"882",1.03143941710164
"883",1.03143941710164
"884",1.03143941710164
"885",0.978033077281139
"886",0.978033077281139
"887",0.978033077281139
"888",0.978033077281139
"889",0.978033077281139
"890",0.978033077281139
"891",0.978033077281139
"892",0.978033077281139
"893",0.978033077281139
"894",0.978033077281139
"895",0.978033077281139
"896",0.978033077281139
"897",0.978033077281139
"898",0.978033077281139
"899",0.978033077281139
"900",0.978033077281139
"901",0.90550806158264
"902",0.90550806158264
"903",0.90550806158264
"904",0.90550806158264
"905",0.90550806158264
"906",0.90550806158264
"907",0.90550806158264
"908",0.90550806158264
"909",0.90550806158264
"910",0.90550806158264
"911",0.90550806158264
"912",0.90550806158264
"913",0.90550806158264
"914",0.90550806158264
"915",0.90550806158264
"916",0.90550806158264
"917",0.90550806158264
"918",0.90550806158264
"919",0.90550806158264
"920",0.90550806158264
"921",0.90550806158264
"922",0.868731505433937
"923",0.868731505433937
"924",0.868731505433937
"925",0.868731505433937
"926",0.868731505433937
"927",0.868731505433937
"928",0.868731505433937
"929",0.868731505433937
"930",0.868731505433937
"931",0.868731505433937
"932",0.868731505433937
"933",0.868731505433937
"934",0.868731505433937
"935",0.868731505433937
"936",0.868731505433937
"937",0.868731505433937
"938",0.868731505433937
"939",0.868731505433937
"940",0.868731505433937
"941",0.868731505433937
"942",0.868731505433937
"943",0.868731505433937
"944",0.819875820618379
"945",0.819875820618379
"946",0.819875820618379
"947",0.819875820618379
"948",0.819875820618379
"949",0.819875820618379
"950",0.819875820618379
"951",0.819875820618379
"952",0.819875820618379
"953",0.819875820618379
"954",0.819875820618379
"955",0.819875820618379
"956",0.819875820618379
"957",0.819875820618379
"958",0.819875820618379
"959",0.819875820618379
"960",0.819875820618379
"961",0.819875820618379
"962",0.819875820618379
"963",0.781180962249144
"964",0.781180962249144
"965",0.781180962249144
"966",0.781180962249144
"967",0.781180962249144
"968",0.781180962249144
"969",0.781180962249144
"970",0.781180962249144
"971",0.781180962249144
"972",0.781180962249144
"973",0.781180962249144
"974",0.781180962249144
"975",0.781180962249144
"976",0.781180962249144
"977",0.762148496866381
"978",0.762148496866381
"979",0.762148496866381
"980",0.762148496866381
"981",0.762148496866381
"982",0.762148496866381
"983",0.762148496866381
"984",0.762148496866381
"985",0.762148496866381
"986",0.762148496866381
"987",0.762148496866381
"988",0.762148496866381
"989",0.762148496866381
"990",0.762148496866381
"991",0.762148496866381
"992",0.762148496866381
"993",0.762148496866381
"994",0.762148496866381
"995",0.762148496866381
"996",0.762148496866381
"997",0.762148496866381
"998",0.762148496866381
"999",0.762148496866381
"1000",0.759019768028984
"1001",0.759019768028984
"1002",0.759019768028984
"1003",0.759019768028984
"1004",0.759019768028984
"1005",0.759019768028984
"1006",0.759019768028984
"1007",0.759019768028984
"1008",0.759019768028984
"1009",0.759019768028984
"1010",0.759019768028984
"1011",0.759019768028984
"1012",0.759019768028984
"1013",0.759019768028984
"1014",0.759019768028984
"1015",0.759019768028984
"1016",0.759019768028984
"1017",0.759019768028984
"1018",0.731564007111804
"1019",0.731564007111804
"1020",0.731564007111804
"1021",0.731564007111804
"1022",0.731564007111804
"1023",0.731564007111804
"1024",0.731564007111804
"1025",0.731564007111804
"1026",0.731564007111804
"1027",0.731564007111804
"1028",0.731564007111804
"1029",0.731564007111804
"1030",0.731564007111804
"1031",0.731564007111804
"1032",0.731564007111804
"1033",0.731564007111804
"1034",0.731564007111804
"1035",0.731564007111804
"1036",0.731564007111804
"1037",0.731564007111804
"1038",0.71315577955977
"1039",0.71315577955977
"1040",0.71315577955977
"1041",0.71315577955977
"1042",0.71315577955977
"1043",0.71315577955977
"1044",0.71315577955977
"1045",0.71315577955977
"1046",0.71315577955977
"1047",0.71315577955977
"1048",0.71315577955977
"1049",0.71315577955977
"1050",0.71315577955977
"1051",0.71315577955977
"1052",0.71315577955977
"1053",0.71315577955977
"1054",0.71315577955977
"1055",0.71315577955977
"1056",0.71315577955977
"1057",0.71315577955977
"1058",0.71315577955977
"1059",0.718942144983649
"1060",0.718942144983649
"1061",0.718942144983649
"1062",0.718942144983649
"1063",0.718942144983649
"1064",0.718942144983649
"1065",0.718942144983649
"1066",0.718942144983649
"1067",0.718942144983649
"1068",0.718942144983649
"1069",0.718942144983649
"1070",0.718942144983649
"1071",0.718942144983649
"1072",0.718942144983649
"1073",0.718942144983649
"1074",0.718942144983649
"1075",0.718942144983649
"1076",0.718942144983649
"1077",0.718942144983649
"1078",0.718942144983649
"1079",0.719938931000869
"1080",0.719938931000869
"1081",0.719938931000869
"1082",0.719938931000869
"1083",0.719938931000869
"1084",0.719938931000869
"1085",0.719938931000869
"1086",0.719938931000869
"1087",0.719938931000869
"1088",0.719938931000869
"1089",0.719938931000869
"1090",0.719938931000869
"1091",0.719938931000869
"1092",0.719938931000869
"1093",0.719938931000869
"1094",0.719938931000869
"1095",0.719938931000869
"1096",0.719938931000869
"1097",0.719938931000869
"1098",0.719938931000869
"1099",0.719938931000869
"1100",0.719938931000869
"1101",0.719938931000869
"1102",1.064178851402
"1103",1.064178851402
"1104",1.064178851402
"1105",1.064178851402
"1106",1.064178851402
"1107",1.064178851402
"1108",1.064178851402
"1109",1.064178851402
"1110",1.064178851402
"1111",1.064178851402
"1112",1.064178851402
"1113",1.064178851402
"1114",1.064178851402
"1115",1.064178851402
"1116",1.064178851402
"1117",1.064178851402
"1118",1.064178851402
"1119",1.064178851402
"1120",1.064178851402
"1121",1.064178851402
"1122",1.15827421589282
"1123",1.15827421589282
"1124",1.15827421589282
"1125",1.15827421589282
"1126",1.15827421589282
"1127",1.15827421589282
"1128",1.15827421589282
"1129",1.15827421589282
"1130",1.15827421589282
"1131",1.15827421589282
"1132",1.15827421589282
"1133",1.15827421589282
"1134",1.15827421589282
"1135",1.15827421589282
"1136",1.15827421589282
"1137",1.15827421589282
"1138",1.23619730608699
"1139",1.23619730608699
"1140",1.23619730608699
"1141",1.23619730608699
"1142",1.23619730608699
"1143",1.23619730608699
"1144",1.23619730608699
"1145",1.23619730608699
"1146",1.23619730608699
"1147",1.23619730608699
"1148",1.23619730608699
"1149",1.23619730608699
"1150",1.23619730608699
"1151",1.23619730608699
"1152",1.23619730608699
"1153",1.23619730608699
"1154",1.23619730608699
"1155",1.23619730608699
"1156",1.23619730608699
"1157",1.23619730608699
"1158",1.23619730608699
"1159",1.33020642788232
"1160",1.33020642788232
"1161",1.33020642788232
"1162",1.33020642788232
"1163",1.33020642788232
"1164",1.33020642788232
"1165",1.33020642788232
"1166",1.33020642788232
"1167",1.33020642788232
"1168",1.33020642788232
"1169",1.33020642788232
"1170",1.33020642788232
"1171",1.33020642788232
"1172",1.33020642788232
"1173",1.33020642788232
"1174",1.33020642788232
"1175",1.33020642788232
"1176",1.33020642788232
"1177",1.33020642788232
"1178",1.33020642788232
"1179",1.33020642788232
"1180",1.25698319430384
"1181",1.25698319430384
"1182",1.25698319430384
"1183",1.25698319430384
"1184",1.25698319430384
"1185",1.25698319430384
"1186",1.25698319430384
"1187",1.25698319430384
"1188",1.25698319430384
"1189",1.25698319430384
"1190",1.25698319430384
"1191",1.25698319430384
"1192",1.25698319430384
"1193",1.25698319430384
"1194",1.12928891288878
"1195",1.12928891288878
"1196",1.12928891288878
"1197",1.12928891288878
"1198",1.12928891288878
"1199",1.12928891288878
"1200",1.12928891288878
"1201",1.12928891288878
"1202",1.12928891288878
"1203",1.12928891288878
"1204",1.12928891288878
"1205",1.12928891288878
"1206",1.12928891288878
"1207",1.12928891288878
"1208",1.12928891288878
"1209",1.12928891288878
"1210",1.12928891288878
"1211",1.12928891288878
"1212",1.12928891288878
"1213",1.12928891288878
"1214",1.03230219360504
"1215",1.03230219360504
"1216",1.03230219360504
"1217",1.03230219360504
"1218",1.03230219360504
"1219",1.03230219360504
"1220",1.03230219360504
"1221",1.03230219360504
"1222",1.03230219360504
"1223",1.03230219360504
"1224",1.03230219360504
"1225",1.03230219360504
"1226",1.03230219360504
"1227",1.03230219360504
"1228",1.03230219360504
"1229",1.03230219360504
"1230",1.03230219360504
"1231",1.03230219360504
"1232",1.03230219360504
"1233",1.03230219360504
"1234",1.03230219360504
"1235",1.03230219360504
"1236",0.964083512599987
"1237",0.964083512599987
"1238",0.964083512599987
"1239",0.964083512599987
"1240",0.964083512599987
"1241",0.964083512599987
"1242",0.964083512599987
"1243",0.964083512599987
"1244",0.964083512599987
"1245",0.964083512599987
"1246",0.964083512599987
"1247",0.964083512599987
"1248",0.964083512599987
"1249",0.964083512599987
"1250",0.964083512599987
"1251",0.964083512599987
"1252",0.9253918296851
"1253",0.9253918296851
"1254",0.9253918296851
"1255",0.9253918296851
"1256",0.9253918296851
"1257",0.9253918296851
"1258",0.9253918296851
"1259",0.9253918296851
"1260",0.9253918296851
"1261",0.9253918296851
"1262",0.9253918296851
"1263",0.9253918296851
"1264",0.9253918296851
"1265",0.9253918296851
"1266",0.9253918296851
"1267",0.9253918296851
"1268",0.9253918296851
"1269",0.9253918296851
"1270",0.9253918296851
"1271",0.9253918296851
"1272",0.9253918296851
"1273",0.883818484448263
"1274",0.883818484448263
"1275",0.883818484448263
"1276",0.883818484448263
"1277",0.883818484448263
"1278",0.883818484448263
"1279",0.883818484448263
"1280",0.883818484448263
"1281",0.883818484448263
"1282",0.883818484448263
"1283",0.883818484448263
"1284",0.883818484448263
"1285",0.883818484448263
"1286",0.883818484448263
"1287",0.883818484448263
"1288",0.883818484448263
"1289",0.883818484448263
"1290",0.883818484448263
"1291",0.883818484448263
"1292",0.883818484448263
"1293",0.893253840922241
"1294",0.893253840922241
"1295",0.893253840922241
"1296",0.893253840922241
"1297",0.893253840922241
"1298",0.893253840922241
"1299",0.893253840922241
"1300",0.893253840922241
"1301",0.893253840922241
"1302",0.893253840922241
"1303",0.893253840922241
"1304",0.893253840922241
"1305",0.893253840922241
"1306",0.893253840922241
"1307",0.893253840922241
"1308",0.893253840922241
"1309",0.893253840922241
"1310",0.893253840922241
"1311",0.893253840922241
"1312",0.893253840922241
"1313",0.893253840922241
"1314",0.858627105825154
"1315",0.858627105825154
"1316",0.858627105825154
"1317",0.858627105825154
"1318",0.858627105825154
"1319",0.858627105825154
"1320",0.858627105825154
"1321",0.858627105825154
"1322",0.858627105825154
"1323",0.858627105825154
"1324",0.858627105825154
"1325",0.858627105825154
"1326",0.858627105825154
"1327",0.858627105825154
"1328",0.858627105825154
"1329",0.858627105825154
"1330",0.858627105825154
"1331",0.858627105825154
"1332",0.858627105825154
"1333",0.858627105825154
"1334",0.858627105825154
"1335",0.858627105825154
"1336",0.858627105825154
"1337",0.811957377995461
"1338",0.811957377995461
"1339",0.811957377995461
"1340",0.811957377995461
"1341",0.811957377995461
"1342",0.811957377995461
"1343",0.811957377995461
"1344",0.811957377995461
"1345",0.811957377995461
"1346",0.811957377995461
"1347",0.811957377995461
"1348",0.811957377995461
"1349",0.811957377995461
"1350",0.811957377995461
"1351",0.811957377995461
"1352",0.811957377995461
"1353",0.811957377995461
"1354",0.811957377995461
"1355",0.811957377995461
"1356",0.782570258921524
"1357",0.782570258921524
"1358",0.782570258921524
"1359",0.782570258921524
"1360",0.782570258921524
"1361",0.782570258921524
"1362",0.782570258921524
"1363",0.782570258921524
"1364",0.782570258921524
"1365",0.782570258921524
"1366",0.782570258921524
"1367",0.782570258921524
"1368",0.782570258921524
"1369",0.782570258921524
"1370",0.782570258921524
"1371",0.782570258921524
"1372",0.757851046019597
"1373",0.757851046019597
"1374",0.757851046019597
"1375",0.757851046019597
"1376",0.757851046019597
"1377",0.757851046019597
"1378",0.757851046019597
"1379",0.757851046019597
"1380",0.757851046019597
"1381",0.757851046019597
"1382",0.757851046019597
"1383",0.757851046019597
"1384",0.757851046019597
"1385",0.757851046019597
"1386",0.757851046019597
"1387",0.757851046019597
"1388",0.757851046019597
"1389",0.757851046019597
"1390",0.757851046019597
"1391",0.757851046019597
"1392",0.757851046019597
"1393",0.751422195101715
"1394",0.751422195101715
"1395",0.751422195101715
"1396",0.751422195101715
"1397",0.751422195101715
"1398",0.751422195101715
"1399",0.751422195101715
"1400",0.751422195101715
"1401",0.751422195101715
"1402",0.751422195101715
"1403",0.751422195101715
"1404",0.751422195101715
"1405",0.751422195101715
"1406",0.751422195101715
"1407",0.751422195101715
"1408",0.751422195101715
"1409",0.751422195101715
"1410",0.751422195101715
"1411",0.751422195101715
"1412",0.751422195101715
"1413",0.731398752502582
"1414",0.731398752502582
"1415",0.731398752502582
"1416",0.731398752502582
"1417",0.731398752502582
"1418",0.731398752502582
"1419",0.731398752502582
"1420",0.731398752502582
"1421",0.731398752502582
"1422",0.731398752502582
"1423",0.731398752502582
"1424",0.731398752502582
"1425",0.731398752502582
"1426",0.731398752502582
"1427",0.731398752502582
"1428",0.731398752502582
"1429",0.731398752502582
"1430",0.731398752502582
"1431",0.731398752502582
"1432",0.70094009339365
"1433",0.70094009339365
"1434",0.70094009339365
"1435",0.70094009339365
"1436",0.70094009339365
"1437",0.70094009339365
"1438",0.70094009339365
"1439",0.70094009339365
"1440",0.70094009339365
"1441",0.70094009339365
"1442",0.70094009339365
"1443",0.70094009339365
"1444",0.70094009339365
"1445",0.70094009339365
"1446",0.702271718295735
"1447",0.702271718295735
"1448",0.702271718295735
"1449",0.702271718295735
"1450",0.702271718295735
"1451",0.702271718295735
"1452",0.702271718295735
"1453",0.702271718295735
"1454",0.702271718295735
"1455",0.702271718295735
"1456",0.702271718295735
"1457",0.702271718295735
"1458",0.702271718295735
"1459",0.702271718295735
"1460",0.702271718295735
"1461",0.702271718295735
"1462",0.702271718295735
"1463",0.702271718295735
"1464",0.702271718295735
"1465",0.702271718295735
"1466",0.681035534392341
"1467",0.681035534392341
"1468",0.681035534392341
"1469",0.681035534392341
"1470",0.681035534392341
"1471",0.681035534392341
"1472",0.681035534392341
"1473",0.681035534392341
"1474",0.681035534392341
"1475",0.681035534392341
"1476",0.681035534392341
"1477",0.681035534392341
"1478",0.681035534392341
"1479",0.681035534392341
"1480",0.681035534392341
"1481",0.681035534392341
"1482",0.681035534392341
"1483",0.681035534392341
"1484",0.685734250296932
"1485",0.685734250296932
"1486",0.685734250296932
"1487",0.685734250296932
"1488",0.685734250296932
"1489",0.685734250296932
"1490",0.685734250296932
"1491",0.685734250296932
"1492",0.685734250296932
"1493",0.685734250296932
"1494",0.685734250296932
"1495",0.685734250296932
"1496",0.685734250296932
"1497",0.685734250296932
"1498",0.685734250296932
"1499",0.685734250296932
"1500",0.685734250296932
"1501",0.685734250296932
"1502",0.685734250296932
"1503",0.685734250296932
"1504",0.685734250296932
"1505",0.674714198184477
"1506",0.674714198184477
"1507",0.674714198184477
"1508",0.674714198184477
"1509",0.674714198184477
"1510",0.674714198184477
"1511",0.674714198184477
"1512",0.674714198184477
"1513",0.674714198184477
"1514",0.674714198184477
"1515",0.674714198184477
"1516",0.674714198184477
"1517",0.674714198184477
"1518",0.674714198184477
"1519",0.674714198184477
"1520",0.674714198184477
"1521",0.674714198184477
"1522",0.692942697511088
"1523",0.692942697511088
"1524",0.692942697511088
"1525",0.692942697511088
"1526",0.692942697511088
"1527",0.692942697511088
"1528",0.692942697511088
"1529",0.692942697511088
"1530",0.692942697511088
"1531",0.692942697511088
"1532",0.692942697511088
"1533",0.692942697511088
"1534",0.692942697511088
"1535",0.692942697511088
"1536",0.692942697511088
"1537",0.692942697511088
"1538",0.692942697511088
"1539",0.692942697511088
"1540",0.692942697511088
"1541",0.692942697511088
"1542",0.692942697511088
"1543",0.692942697511088
"1544",0.674191082353317
"1545",0.674191082353317
"1546",0.674191082353317
"1547",0.674191082353317
"1548",0.674191082353317
"1549",0.674191082353317
"1550",0.674191082353317
"1551",0.674191082353317
"1552",0.674191082353317
"1553",0.674191082353317
"1554",0.674191082353317
"1555",0.674191082353317
"1556",0.674191082353317
"1557",0.674191082353317
"1558",0.674191082353317
"1559",0.674191082353317
"1560",0.674191082353317
"1561",0.674191082353317
"1562",0.674191082353317
"1563",0.674191082353317
"1564",0.674191082353317
"1565",0.674191082353317
"1566",0.66549044563281
"1567",0.66549044563281
"1568",0.66549044563281
"1569",0.66549044563281
"1570",0.66549044563281
"1571",0.66549044563281
"1572",0.66549044563281
"1573",0.66549044563281
"1574",0.66549044563281
"1575",0.66549044563281
"1576",0.66549044563281
"1577",0.66549044563281
"1578",0.66549044563281
"1579",0.66549044563281
"1580",0.66549044563281
"1581",0.66549044563281
"1582",0.66549044563281
"1583",0.66549044563281
"1584",0.654148572222513
"1585",0.654148572222513
"1586",0.654148572222513
"1587",0.654148572222513
"1588",0.654148572222513
"1589",0.654148572222513
"1590",0.654148572222513
"1591",0.654148572222513
"1592",0.654148572222513
"1593",0.654148572222513
"1594",0.654148572222513
"1595",0.654148572222513
"1596",0.654148572222513
"1597",0.654148572222513
"1598",0.654148572222513
"1599",0.654148572222513
"1600",0.654148572222513
"1601",0.654148572222513
"1602",0.6556504726109
"1603",0.6556504726109
"1604",0.6556504726109
"1605",0.6556504726109
"1606",0.6556504726109
"1607",0.6556504726109
"1608",0.6556504726109
"1609",0.6556504726109
"1610",0.6556504726109
"1611",0.6556504726109
"1612",0.6556504726109
"1613",0.6556504726109
"1614",0.6556504726109
"1615",0.6556504726109
"1616",0.6556504726109
"1617",0.6556504726109
"1618",0.6556504726109
"1619",0.6556504726109
"1620",0.6556504726109
"1621",0.6556504726109
"1622",0.646445061578697
"1623",0.646445061578697
"1624",0.646445061578697
"1625",0.646445061578697
"1626",0.646445061578697
"1627",0.646445061578697
"1628",0.646445061578697
"1629",0.646445061578697
"1630",0.646445061578697
"1631",0.646445061578697
"1632",0.646445061578697
"1633",0.646445061578697
"1634",0.646445061578697
"1635",0.646445061578697
"1636",0.646445061578697
"1637",0.646445061578697
"1638",0.646445061578697
"1639",0.646445061578697
"1640",0.646445061578697
"1641",0.646445061578697
"1642",0.646445061578697
"1643",0.639701306031152
"1644",0.639701306031152
"1645",0.639701306031152
"1646",0.639701306031152
"1647",0.639701306031152
"1648",0.639701306031152
"1649",0.639701306031152
"1650",0.639701306031152
"1651",0.639701306031152
"1652",0.639701306031152
"1653",0.639701306031152
"1654",0.639701306031152
"1655",0.639701306031152
"1656",0.639701306031152
"1657",0.639701306031152
"1658",0.639701306031152
"1659",0.639701306031152
"1660",0.639701306031152
"1661",0.639701306031152
"1662",0.639701306031152
"1663",0.643307441644547
"1664",0.643307441644547
"1665",0.643307441644547
"1666",0.643307441644547
"1667",0.643307441644547
"1668",0.643307441644547
"1669",0.643307441644547
"1670",0.643307441644547
"1671",0.643307441644547
"1672",0.643307441644547
"1673",0.643307441644547
"1674",0.643307441644547
"1675",0.643307441644547
"1676",0.643307441644547
"1677",0.643307441644547
"1678",0.63693782839454
"1679",0.63693782839454
"1680",0.63693782839454
"1681",0.63693782839454
"1682",0.63693782839454
"1683",0.63693782839454
"1684",0.63693782839454
"1685",0.63693782839454
"1686",0.63693782839454
"1687",0.63693782839454
"1688",0.63693782839454
"1689",0.63693782839454
"1690",0.63693782839454
"1691",0.63693782839454
"1692",0.63693782839454
"1693",0.63693782839454
"1694",0.63693782839454
"1695",0.63693782839454
"1696",0.63693782839454
"1697",0.63693782839454
"1698",0.63693782839454
"1699",0.633867551036913
"1700",0.633867551036913
"1701",0.633867551036913
"1702",0.633867551036913
"1703",0.633867551036913
"1704",0.633867551036913
"1705",0.633867551036913
"1706",0.633867551036913
"1707",0.633867551036913
"1708",0.633867551036913
"1709",0.633867551036913
"1710",0.633867551036913
"1711",0.633867551036913
"1712",0.633867551036913
"1713",0.633867551036913
"1714",0.633867551036913
"1715",0.633867551036913
"1716",0.633867551036913
"1717",0.633867551036913
"1718",0.633867551036913
"1719",0.638308036847389
"1720",0.638308036847389
"1721",0.638308036847389
"1722",0.638308036847389
"1723",0.638308036847389
"1724",0.638308036847389
"1725",0.638308036847389
"1726",0.638308036847389
"1727",0.638308036847389
"1728",0.638308036847389
"1729",0.638308036847389
"1730",0.638308036847389
"1731",0.638308036847389
"1732",0.638308036847389
"1733",0.638308036847389
"1734",0.638308036847389
"1735",0.638308036847389
"1736",0.638308036847389
"1737",0.638308036847389
"1738",0.631346593102966
"1739",0.631346593102966
"1740",0.631346593102966
"1741",0.631346593102966
"1742",0.631346593102966
"1743",0.631346593102966
"1744",0.631346593102966
"1745",0.631346593102966
"1746",0.631346593102966
"1747",0.631346593102966
"1748",0.631346593102966
"1749",0.631346593102966
"1750",0.631346593102966
"1751",0.631346593102966
"1752",0.631346593102966
"1753",0.631346593102966
"1754",0.631346593102966
"1755",0.631346593102966
"1756",0.631346593102966
"1757",0.631346593102966
"1758",0.62057478782045
"1759",0.62057478782045
"1760",0.62057478782045
"1761",0.62057478782045
"1762",0.62057478782045
"1763",0.62057478782045
"1764",0.62057478782045
"1765",0.62057478782045
"1766",0.62057478782045
"1767",0.62057478782045
"1768",0.62057478782045
"1769",0.62057478782045
"1770",0.62057478782045
"1771",0.62057478782045
"1772",0.62057478782045
"1773",0.62057478782045
"1774",0.62057478782045
"1775",0.62057478782045
"1776",0.62057478782045
"1777",0.62057478782045
"1778",0.62057478782045
"1779",0.62057478782045
"1780",0.62065519361492
"1781",0.62065519361492
"1782",0.62065519361492
"1783",0.62065519361492
"1784",0.62065519361492
"1785",0.62065519361492
"1786",0.62065519361492
"1787",0.62065519361492
"1788",0.62065519361492
"1789",0.62065519361492
"1790",0.62065519361492
"1791",0.62065519361492
"1792",0.62065519361492
"1793",0.62065519361492
"1794",0.62065519361492
"1795",0.62065519361492
"1796",0.62065519361492
"1797",0.62065519361492
"1798",0.62065519361492
"1799",0.62065519361492
"1800",0.62065519361492
"1801",0.61523937656041
"1802",0.61523937656041
"1803",0.61523937656041
"1804",0.61523937656041
"1805",0.61523937656041
"1806",0.61523937656041
"1807",0.61523937656041
"1808",0.61523937656041
"1809",0.61523937656041
"1810",0.61523937656041
"1811",0.61523937656041
"1812",0.61523937656041
"1813",0.61523937656041
"1814",0.61523937656041
"1815",0.61523937656041
"1816",0.61523937656041
"1817",0.61523937656041
"1818",0.61523937656041
"1819",0.61523937656041
"1820",0.61523937656041
"1821",0.613697395927115
"1822",0.613697395927115
"1823",0.613697395927115
"1824",0.613697395927115
"1825",0.613697395927115
"1826",0.613697395927115
"1827",0.613697395927115
"1828",0.613697395927115
"1829",0.613697395927115
"1830",0.613697395927115
"1831",0.613697395927115
"1832",0.613697395927115
"1833",0.613697395927115
"1834",0.613697395927115
"1835",0.613697395927115
"1836",0.613697395927115
"1837",0.613697395927115
"1838",0.613697395927115
"1839",0.64393763752333
"1840",0.64393763752333
"1841",0.64393763752333
"1842",0.64393763752333
"1843",0.64393763752333
"1844",0.64393763752333
"1845",0.64393763752333
"1846",0.64393763752333
"1847",0.64393763752333
"1848",0.64393763752333
"1849",0.64393763752333
"1850",0.64393763752333
"1851",0.64393763752333
"1852",0.64393763752333
"1853",0.64393763752333
"1854",0.64393763752333
"1855",0.64393763752333
"1856",0.64393763752333
"1857",0.64393763752333
"1858",0.629814396856226
"1859",0.629814396856226
"1860",0.629814396856226
"1861",0.629814396856226
"1862",0.629814396856226
"1863",0.629814396856226
"1864",0.629814396856226
"1865",0.629814396856226
"1866",0.629814396856226
"1867",0.629814396856226
"1868",0.629814396856226
"1869",0.629814396856226
"1870",0.629814396856226
"1871",0.629814396856226
"1872",0.629814396856226
"1873",0.629814396856226
"1874",0.629814396856226
"1875",0.629814396856226
"1876",0.629814396856226
"1877",0.629814396856226
"1878",0.629814396856226
"1879",0.629814396856226
"1880",0.644228685107893
"1881",0.644228685107893
"1882",0.644228685107893
"1883",0.644228685107893
"1884",0.644228685107893
"1885",0.644228685107893
"1886",0.644228685107893
"1887",0.644228685107893
"1888",0.644228685107893
"1889",0.644228685107893
"1890",0.644228685107893
"1891",0.644228685107893
"1892",0.644228685107893
"1893",0.644228685107893
"1894",0.644228685107893
"1895",0.644228685107893
"1896",0.644228685107893
"1897",0.644228685107893
"1898",0.644228685107893
"1899",0.666369304638419
"1900",0.666369304638419
"1901",0.666369304638419
"1902",0.666369304638419
"1903",0.666369304638419
"1904",0.666369304638419
"1905",0.666369304638419
"1906",0.666369304638419
"1907",0.666369304638419
"1908",0.666369304638419
"1909",0.666369304638419
"1910",0.666369304638419
"1911",0.666369304638419
"1912",0.666369304638419
"1913",0.664542248512786
"1914",0.664542248512786
"1915",0.664542248512786
"1916",0.664542248512786
"1917",0.664542248512786
"1918",0.664542248512786
"1919",0.664542248512786
"1920",0.664542248512786
"1921",0.664542248512786
"1922",0.664542248512786
"1923",0.664542248512786
"1924",0.664542248512786
"1925",0.664542248512786
"1926",0.664542248512786
"1927",0.664542248512786
"1928",0.664542248512786
"1929",0.664542248512786
"1930",0.664542248512786
"1931",0.664542248512786
"1932",0.664542248512786
"1933",0.664542248512786
"1934",0.664542248512786
"1935",0.671094493235926
"1936",0.671094493235926
"1937",0.671094493235926
"1938",0.671094493235926
"1939",0.671094493235926
"1940",0.671094493235926
"1941",0.671094493235926
"1942",0.671094493235926
"1943",0.671094493235926
"1944",0.671094493235926
"1945",0.671094493235926
"1946",0.671094493235926
"1947",0.671094493235926
"1948",0.671094493235926
"1949",0.671094493235926
"1950",0.671094493235926
"1951",0.671094493235926
"1952",0.671094493235926
"1953",0.671094493235926
"1954",0.671094493235926
"1955",0.659103016653712
"1956",0.659103016653712
"1957",0.659103016653712
"1958",0.659103016653712
"1959",0.659103016653712
"1960",0.659103016653712
"1961",0.659103016653712
"1962",0.659103016653712
"1963",0.659103016653712
"1964",0.659103016653712
"1965",0.659103016653712
"1966",0.659103016653712
"1967",0.659103016653712
"1968",0.659103016653712
"1969",0.659103016653712
"1970",0.659103016653712
"1971",0.659103016653712
"1972",0.659103016653712
"1973",0.659103016653712
"1974",0.653253034056071
"1975",0.653253034056071
"1976",0.653253034056071
"1977",0.653253034056071
"1978",0.653253034056071
"1979",0.653253034056071
"1980",0.653253034056071
"1981",0.653253034056071
"1982",0.653253034056071
"1983",0.653253034056071
"1984",0.653253034056071
"1985",0.653253034056071
"1986",0.653253034056071
"1987",0.653253034056071
"1988",0.653253034056071
"1989",0.653253034056071
"1990",0.653253034056071
"1991",0.653253034056071
"1992",0.653253034056071
"1993",0.653253034056071
"1994",0.653253034056071
"1995",0.650904430311445
"1996",0.650904430311445
"1997",0.650904430311445
"1998",0.650904430311445
"1999",0.650904430311445
"2000",0.650904430311445
"2001",0.650904430311445
"2002",0.650904430311445
"2003",0.650904430311445
"2004",0.650904430311445
"2005",0.650904430311445
"2006",0.650904430311445
"2007",0.650904430311445
"2008",0.650904430311445
"2009",0.650904430311445
"2010",0.650904430311445
"2011",0.650904430311445
"2012",0.650904430311445
"2013",0.650904430311445
"2014",0.650904430311445
"2015",0.650904430311445
"2016",0.650904430311445
"2017",0.650143747115162
"2018",0.650143747115162
"2019",0.650143747115162
"2020",0.650143747115162
"2021",0.650143747115162
"2022",0.650143747115162
"2023",0.650143747115162
"2024",0.650143747115162
"2025",0.650143747115162
"2026",0.650143747115162
"2027",0.650143747115162
"2028",0.650143747115162
"2029",0.650143747115162
"2030",0.650143747115162
"2031",0.650143747115162
"2032",0.650143747115162
"2033",0.650143747115162
"2034",0.650143747115162
"2035",0.650143747115162
"2036",0.650143747115162
"2037",0.650143747115162
"2038",0.729694556753158
"2039",0.729694556753158
"2040",0.729694556753158
"2041",0.729694556753158
"2042",0.729694556753158
"2043",0.729694556753158
"2044",0.729694556753158
"2045",0.729694556753158
"2046",0.729694556753158
"2047",0.729694556753158
"2048",0.729694556753158
"2049",0.729694556753158
"2050",0.729694556753158
"2051",0.729694556753158
"2052",0.729694556753158
"2053",0.729694556753158
"2054",0.729694556753158
"2055",0.729694556753158
"2056",0.729694556753158
"2057",0.775656123089886
"2058",0.775656123089886
"2059",0.775656123089886
"2060",0.775656123089886
"2061",0.775656123089886
"2062",0.775656123089886
"2063",0.775656123089886
"2064",0.775656123089886
"2065",0.775656123089886
"2066",0.775656123089886
"2067",0.775656123089886
"2068",0.775656123089886
"2069",0.775656123089886
"2070",0.775656123089886
"2071",0.775656123089886
"2072",0.775656123089886
"2073",0.775656123089886
"2074",0.759877965203619
"2075",0.759877965203619
"2076",0.759877965203619
"2077",0.759877965203619
"2078",0.759877965203619
"2079",0.759877965203619
"2080",0.759877965203619
"2081",0.759877965203619
"2082",0.759877965203619
"2083",0.759877965203619
"2084",0.759877965203619
"2085",0.759877965203619
"2086",0.759877965203619
"2087",0.759877965203619
"2088",0.759877965203619
"2089",0.759877965203619
"2090",0.759877965203619
"2091",0.759877965203619
"2092",0.759877965203619
"2093",0.759877965203619
"2094",0.745045245404355
"2095",0.745045245404355
"2096",0.745045245404355
"2097",0.745045245404355
"2098",0.745045245404355
"2099",0.745045245404355
"2100",0.745045245404355
"2101",0.745045245404355
"2102",0.745045245404355
"2103",0.745045245404355
"2104",0.745045245404355
"2105",0.745045245404355
"2106",0.745045245404355
"2107",0.745045245404355
"2108",0.745045245404355
"2109",0.745045245404355
"2110",0.745045245404355
"2111",0.745045245404355
"2112",0.745045245404355
"2113",0.745045245404355
"2114",0.745045245404355
"2115",0.745045245404355
"2116",0.760066067273662
"2117",0.760066067273662
"2118",0.760066067273662
"2119",0.760066067273662
"2120",0.760066067273662
"2121",0.760066067273662
"2122",0.760066067273662
"2123",0.760066067273662
"2124",0.760066067273662
"2125",0.760066067273662
"2126",0.760066067273662
"2127",0.760066067273662
"2128",0.760066067273662
"2129",0.760066067273662
"2130",0.760066067273662
"2131",0.760066067273662
"2132",0.760066067273662
"2133",0.760066067273662
"2134",0.760066067273662
"2135",0.81316432418007
"2136",0.81316432418007
"2137",0.81316432418007
"2138",0.81316432418007
"2139",0.81316432418007
"2140",0.81316432418007
"2141",0.81316432418007
"2142",0.81316432418007
"2143",0.81316432418007
"2144",0.81316432418007
"2145",0.81316432418007
"2146",0.81316432418007
"2147",0.81316432418007
"2148",0.81316432418007
"2149",0.81316432418007
"2150",0.818197080684179
"2151",0.818197080684179
"2152",0.818197080684179
"2153",0.818197080684179
"2154",0.818197080684179
"2155",0.818197080684179
"2156",0.818197080684179
"2157",0.818197080684179
"2158",0.818197080684179
"2159",0.818197080684179
"2160",0.818197080684179
"2161",0.818197080684179
"2162",0.818197080684179
"2163",0.818197080684179
"2164",0.818197080684179
"2165",0.818197080684179
"2166",0.818197080684179
"2167",0.818197080684179
"2168",0.818197080684179
"2169",0.818197080684179
"2170",0.818197080684179
"2171",0.818197080684179
"2172",0.794258177125585
"2173",0.794258177125585
"2174",0.794258177125585
"2175",0.794258177125585
"2176",0.794258177125585
"2177",0.794258177125585
"2178",0.794258177125585
"2179",0.794258177125585
"2180",0.794258177125585
"2181",0.794258177125585
"2182",0.794258177125585
"2183",0.794258177125585
"2184",0.794258177125585
"2185",0.794258177125585
"2186",0.794258177125585
"2187",0.794258177125585
"2188",0.794258177125585
"2189",0.794258177125585
"2190",0.794258177125585
"2191",0.794258177125585
"2192",0.766905557011866
"2193",0.766905557011866
"2194",0.766905557011866
"2195",0.766905557011866
"2196",0.766905557011866
"2197",0.766905557011866
"2198",0.766905557011866
"2199",0.766905557011866
"2200",0.766905557011866
"2201",0.766905557011866
"2202",0.766905557011866
"2203",0.766905557011866
"2204",0.766905557011866
"2205",0.766905557011866
"2206",0.766905557011866
"2207",0.766905557011866
"2208",0.766905557011866
"2209",0.766905557011866
"2210",0.766905557011866
"2211",0.766905557011866
"2212",0.745842659189262
"2213",0.745842659189262
"2214",0.745842659189262
"2215",0.745842659189262
"2216",0.745842659189262
"2217",0.745842659189262
"2218",0.745842659189262
"2219",0.745842659189262
"2220",0.745842659189262
"2221",0.745842659189262
"2222",0.745842659189262
"2223",0.745842659189262
"2224",0.745842659189262
"2225",0.745842659189262
"2226",0.745842659189262
"2227",0.745842659189262
"2228",0.745842659189262
"2229",0.745842659189262
"2230",0.745842659189262
"2231",0.745842659189262
"2232",0.763705623764212
"2233",0.763705623764212
"2234",0.763705623764212
"2235",0.763705623764212
"2236",0.763705623764212
"2237",0.763705623764212
"2238",0.763705623764212
"2239",0.763705623764212
"2240",0.763705623764212
"2241",0.763705623764212
"2242",0.763705623764212
"2243",0.763705623764212
"2244",0.763705623764212
"2245",0.763705623764212
"2246",0.763705623764212
"2247",0.763705623764212
"2248",0.763705623764212
"2249",0.763705623764212
"2250",0.763705623764212
"2251",0.763705623764212
"2252",0.734276666909223
"2253",0.734276666909223
"2254",0.734276666909223
"2255",0.734276666909223
"2256",0.734276666909223
"2257",0.734276666909223
"2258",0.734276666909223
"2259",0.734276666909223
"2260",0.734276666909223
"2261",0.734276666909223
"2262",0.734276666909223
"2263",0.734276666909223
"2264",0.734276666909223
"2265",0.734276666909223
"2266",0.734276666909223
"2267",0.734276666909223
"2268",0.734276666909223
"2269",0.734276666909223
"2270",0.734276666909223
"2271",0.734276666909223
"2272",0.734276666909223
"2273",0.734276666909223
"2274",0.734276666909223
"2275",0.705158956938309
"2276",0.705158956938309
"2277",0.705158956938309
"2278",0.705158956938309
"2279",0.705158956938309
"2280",0.705158956938309
"2281",0.705158956938309
"2282",0.705158956938309
"2283",0.705158956938309
"2284",0.705158956938309
"2285",0.705158956938309
"2286",0.705158956938309
"2287",0.705158956938309
"2288",0.705158956938309
"2289",0.705158956938309
"2290",0.705158956938309
"2291",0.705158956938309
"2292",0.705158956938309
"2293",0.705158956938309
"2294",0.705656218678431
"2295",0.705656218678431
"2296",0.705656218678431
"2297",0.705656218678431
"2298",0.705656218678431
"2299",0.705656218678431
"2300",0.705656218678431
"2301",0.705656218678431
"2302",0.705656218678431
"2303",0.705656218678431
"2304",0.705656218678431
"2305",0.705656218678431
"2306",0.705656218678431
"2307",0.705656218678431
"2308",0.705656218678431
"2309",0.705656218678431
"2310",0.683487376685994
"2311",0.683487376685994
"2312",0.683487376685994
"2313",0.683487376685994
"2314",0.683487376685994
"2315",0.683487376685994
"2316",0.683487376685994
"2317",0.683487376685994
"2318",0.683487376685994
"2319",0.683487376685994
"2320",0.683487376685994
"2321",0.683487376685994
"2322",0.683487376685994
"2323",0.683487376685994
"2324",0.683487376685994
"2325",0.683487376685994
"2326",0.683487376685994
"2327",0.683487376685994
"2328",0.683487376685994
"2329",0.683487376685994
"2330",0.683487376685994
"2331",0.673528294690976
"2332",0.673528294690976
"2333",0.673528294690976
"2334",0.673528294690976
"2335",0.673528294690976
"2336",0.673528294690976
"2337",0.673528294690976
"2338",0.673528294690976
"2339",0.673528294690976
"2340",0.673528294690976
"2341",0.673528294690976
"2342",0.673528294690976
"2343",0.673528294690976
"2344",0.673528294690976
"2345",0.673528294690976
"2346",0.673528294690976
"2347",0.673528294690976
"2348",0.673528294690976
"2349",0.673528294690976
"2350",0.673528294690976
"2351",0.673528294690976
"2352",0.658440328904652
"2353",0.658440328904652
"2354",0.658440328904652
"2355",0.658440328904652
"2356",0.658440328904652
"2357",0.658440328904652
"2358",0.658440328904652
"2359",0.658440328904652
"2360",0.658440328904652
"2361",0.658440328904652
"2362",0.658440328904652
"2363",0.658440328904652
"2364",0.658440328904652
"2365",0.658440328904652
"2366",0.658440328904652
"2367",0.658440328904652
"2368",0.658440328904652
"2369",0.64322464335956
"2370",0.64322464335956
"2371",0.64322464335956
"2372",0.64322464335956
"2373",0.64322464335956
"2374",0.64322464335956
"2375",0.64322464335956
"2376",0.64322464335956
"2377",0.64322464335956
"2378",0.64322464335956
"2379",0.64322464335956
"2380",0.64322464335956
"2381",0.64322464335956
"2382",0.64322464335956
"2383",0.64322464335956
"2384",0.64322464335956
"2385",0.64322464335956
"2386",0.628984139296776
"2387",0.628984139296776
"2388",0.628984139296776
"2389",0.628984139296776
"2390",0.628984139296776
"2391",0.628984139296776
"2392",0.628984139296776
"2393",0.628984139296776
"2394",0.628984139296776
"2395",0.628984139296776
"2396",0.628984139296776
"2397",0.628984139296776
"2398",0.628984139296776
"2399",0.628984139296776
"2400",0.628984139296776
"2401",0.628984139296776
"2402",0.628984139296776
"2403",0.628984139296776
"2404",0.628984139296776
"2405",0.628984139296776
"2406",0.628984139296776
"2407",0.628984139296776
"2408",0.628984139296776
"2409",0.620758695969925
"2410",0.620758695969925
"2411",0.620758695969925
"2412",0.620758695969925
"2413",0.620758695969925
"2414",0.620758695969925
"2415",0.620758695969925
"2416",0.620758695969925
"2417",0.620758695969925
"2418",0.620758695969925
"2419",0.620758695969925
"2420",0.620758695969925
"2421",0.620758695969925
"2422",0.620758695969925
"2423",0.620758695969925
"2424",0.620758695969925
"2425",0.620758695969925
"2426",0.613171408676587
"2427",0.613171408676587
"2428",0.613171408676587
"2429",0.613171408676587
"2430",0.613171408676587
"2431",0.613171408676587
"2432",0.613171408676587
"2433",0.613171408676587
"2434",0.613171408676587
"2435",0.613171408676587
"2436",0.613171408676587
"2437",0.613171408676587
"2438",0.613171408676587
"2439",0.613171408676587
"2440",0.613171408676587
"2441",0.613171408676587
"2442",0.613171408676587
"2443",0.613171408676587
"2444",0.613171408676587
"2445",0.613171408676587
"2446",0.607632007872298
"2447",0.607632007872298
"2448",0.607632007872298
"2449",0.607632007872298
"2450",0.607632007872298
"2451",0.607632007872298
"2452",0.607632007872298
"2453",0.607632007872298
"2454",0.607632007872298
"2455",0.607632007872298
"2456",0.607632007872298
"2457",0.607632007872298
"2458",0.607632007872298
"2459",0.607632007872298
"2460",0.607632007872298
"2461",0.607632007872298
"2462",0.607632007872298
"2463",0.607632007872298
"2464",0.607632007872298
"2465",0.607632007872298
"2466",0.607632007872298
"2467",0.607632007872298
"2468",0.601560451320716
"2469",0.601560451320716
"2470",0.601560451320716
"2471",0.601560451320716
"2472",0.601560451320716
"2473",0.601560451320716
"2474",0.601560451320716
"2475",0.601560451320716
"2476",0.601560451320716
"2477",0.601560451320716
"2478",0.601560451320716
"2479",0.601560451320716
"2480",0.601560451320716
"2481",0.601560451320716
"2482",0.601560451320716
"2483",0.601560451320716
"2484",0.601560451320716
"2485",0.601560451320716
"2486",0.601560451320716
"2487",0.601560451320716
"2488",0.594267619486804
"2489",0.594267619486804
"2490",0.594267619486804
"2491",0.594267619486804
"2492",0.594267619486804
"2493",0.594267619486804
"2494",0.594267619486804
"2495",0.594267619486804
"2496",0.594267619486804
"2497",0.594267619486804
"2498",0.594267619486804
"2499",0.594267619486804
"2500",0.594267619486804
"2501",0.594267619486804
"2502",0.594267619486804
"2503",0.594267619486804
"2504",0.594267619486804
"2505",0.594267619486804
"2506",0.594267619486804
"2507",0.594267619486804
"2508",0.594267619486804
"2509",0.594267619486804
"2510",0.594267619486804
"2511",0.59422935495872
"2512",0.59422935495872
"2513",0.59422935495872
"2514",0.59422935495872
"2515",0.59422935495872
"2516",0.59422935495872
"2517",0.59422935495872
"2518",0.59422935495872
"2519",0.59422935495872
"2520",0.59422935495872
"2521",0.59422935495872
"2522",0.59422935495872
"2523",0.59422935495872
"2524",0.59422935495872
"2525",0.59422935495872
"2526",0.59422935495872
"2527",0.59422935495872
"2528",0.59422935495872
"2529",0.59422935495872
"2530",0.59422935495872
"2531",0.58831329774834
"2532",0.58831329774834
"2533",0.58831329774834
"2534",0.58831329774834
"2535",0.58831329774834
"2536",0.58831329774834
"2537",0.58831329774834
"2538",0.58831329774834
"2539",0.58831329774834
"2540",0.58831329774834
"2541",0.58831329774834
"2542",0.58831329774834
"2543",0.58831329774834
"2544",0.58831329774834
"2545",0.58831329774834
"2546",0.58831329774834
"2547",0.58831329774834
"2548",0.582408652097948
"2549",0.582408652097948
"2550",0.582408652097948
"2551",0.582408652097948
"2552",0.582408652097948
"2553",0.582408652097948
"2554",0.582408652097948
"2555",0.582408652097948
"2556",0.582408652097948
"2557",0.582408652097948
"2558",0.582408652097948
"2559",0.582408652097948
"2560",0.582408652097948
"2561",0.582408652097948
"2562",0.582408652097948
"2563",0.582408652097948
"2564",0.582408652097948
"2565",0.582408652097948
"2566",0.582408652097948
"2567",0.582408652097948
"2568",0.582408652097948
"2569",0.579594599052165
"2570",0.579594599052165
"2571",0.579594599052165
"2572",0.579594599052165
"2573",0.579594599052165
"2574",0.579594599052165
"2575",0.579594599052165
"2576",0.579594599052165
"2577",0.579594599052165
"2578",0.579594599052165
"2579",0.579594599052165
"2580",0.579594599052165
"2581",0.579594599052165
"2582",0.579594599052165
"2583",0.579594599052165
"2584",0.579594599052165
"2585",0.579594599052165
"2586",0.579594599052165
"2587",0.579594599052165
"2588",0.579594599052165
"2589",0.575933771571724
"2590",0.575933771571724
"2591",0.575933771571724
"2592",0.575933771571724
"2593",0.575933771571724
"2594",0.575933771571724
"2595",0.575933771571724
"2596",0.575933771571724
"2597",0.575933771571724
"2598",0.575933771571724
"2599",0.575933771571724
"2600",0.575933771571724
"2601",0.575933771571724
"2602",0.575933771571724
"2603",0.575933771571724
"2604",0.575933771571724
"2605",0.575933771571724
"2606",0.575933771571724
"2607",0.575933771571724
"2608",0.575933771571724
"2609",0.575933771571724
"2610",0.580141476367831
"2611",0.580141476367831
"2612",0.580141476367831
"2613",0.580141476367831
"2614",0.580141476367831
"2615",0.580141476367831
"2616",0.580141476367831
"2617",0.580141476367831
"2618",0.580141476367831
"2619",0.580141476367831
"2620",0.580141476367831
"2621",0.580141476367831
"2622",0.580141476367831
"2623",0.580141476367831
"2624",0.580141476367831
"2625",0.686118843122129
"2626",0.686118843122129
"2627",0.686118843122129
"2628",0.686118843122129
"2629",0.686118843122129
"2630",0.686118843122129
"2631",0.686118843122129
"2632",0.686118843122129
"2633",0.686118843122129
"2634",0.686118843122129
"2635",0.686118843122129
"2636",0.686118843122129
"2637",0.686118843122129
"2638",0.686118843122129
"2639",0.686118843122129
"2640",0.686118843122129
"2641",0.686118843122129
"2642",0.686118843122129
"2643",0.686118843122129
"2644",0.686118843122129
"2645",0.686118843122129
"2646",0.718840758255202
"2647",0.718840758255202
"2648",0.718840758255202
"2649",0.718840758255202
"2650",0.718840758255202
"2651",0.718840758255202
"2652",0.718840758255202
"2653",0.718840758255202
"2654",0.718840758255202
"2655",0.718840758255202
"2656",0.718840758255202
"2657",0.718840758255202
"2658",0.718840758255202
"2659",0.718840758255202
"2660",0.718840758255202
"2661",0.718840758255202
"2662",0.718840758255202
"2663",0.718840758255202
"2664",0.727160797727968
"2665",0.727160797727968
"2666",0.727160797727968
"2667",0.727160797727968
"2668",0.727160797727968
"2669",0.727160797727968
"2670",0.727160797727968
"2671",0.727160797727968
"2672",0.727160797727968
"2673",0.727160797727968
"2674",0.727160797727968
"2675",0.727160797727968
"2676",0.727160797727968
"2677",0.727160797727968
"2678",0.727160797727968
"2679",0.727160797727968
"2680",0.727160797727968
"2681",0.727160797727968
"2682",0.727160797727968
"2683",0.727160797727968
"2684",0.727160797727968
"2685",0.713814728365656
"2686",0.713814728365656
"2687",0.713814728365656
"2688",0.713814728365656
"2689",0.713814728365656
"2690",0.713814728365656
"2691",0.713814728365656
"2692",0.713814728365656
"2693",0.713814728365656
"2694",0.713814728365656
"2695",0.713814728365656
"2696",0.713814728365656
"2697",0.713814728365656
"2698",0.713814728365656
"2699",0.713814728365656
"2700",0.713814728365656
"2701",0.713814728365656
"2702",0.713814728365656
"2703",0.713814728365656
"2704",0.713814728365656
"2705",0.697518309909803
"2706",0.697518309909803
"2707",0.697518309909803
"2708",0.697518309909803
"2709",0.697518309909803
"2710",0.697518309909803
"2711",0.697518309909803
"2712",0.697518309909803
"2713",0.697518309909803
"2714",0.697518309909803
"2715",0.697518309909803
"2716",0.697518309909803
"2717",0.697518309909803
"2718",0.697518309909803
"2719",0.697518309909803
"2720",0.697518309909803
"2721",0.697518309909803
"2722",0.697518309909803
"2723",0.697518309909803
"2724",0.697518309909803
"2725",0.697518309909803
"2726",0.683293629927096
"2727",0.683293629927096
"2728",0.683293629927096
"2729",0.683293629927096
"2730",0.683293629927096
"2731",0.683293629927096
"2732",0.683293629927096
"2733",0.683293629927096
"2734",0.683293629927096
"2735",0.683293629927096
"2736",0.683293629927096
"2737",0.683293629927096
"2738",0.683293629927096
"2739",0.683293629927096
"2740",0.683293629927096
"2741",0.683293629927096
"2742",0.683293629927096
"2743",0.683293629927096
"2744",0.683293629927096
"2745",0.683293629927096
"2746",0.683293629927096
"2747",0.683293629927096
"2748",0.683293629927096
"2749",0.667240584522735
"2750",0.667240584522735
"2751",0.667240584522735
"2752",0.667240584522735
"2753",0.667240584522735
"2754",0.667240584522735
"2755",0.667240584522735
"2756",0.667240584522735
"2757",0.667240584522735
"2758",0.667240584522735
"2759",0.667240584522735
"2760",0.667240584522735
"2761",0.667240584522735
"2762",0.667240584522735
"2763",0.667240584522735
"2764",0.667240584522735
"2765",0.667240584522735
"2766",0.667240584522735
"2767",0.650547724655798
"2768",0.650547724655798
"2769",0.650547724655798
"2770",0.650547724655798
"2771",0.650547724655798
"2772",0.650547724655798
"2773",0.650547724655798
"2774",0.650547724655798
"2775",0.650547724655798
"2776",0.650547724655798
"2777",0.650547724655798
"2778",0.650547724655798
"2779",0.650547724655798
"2780",0.650547724655798
"2781",0.650547724655798
"2782",0.650547724655798
"2783",0.650547724655798
"2784",0.650547724655798
"2785",0.719168911101783
"2786",0.719168911101783
"2787",0.719168911101783
"2788",0.719168911101783
"2789",0.719168911101783
"2790",0.719168911101783
"2791",0.719168911101783
"2792",0.719168911101783
"2793",0.719168911101783
"2794",0.719168911101783
"2795",0.719168911101783
"2796",0.719168911101783
"2797",0.719168911101783
"2798",0.719168911101783
"2799",0.719168911101783
"2800",0.719168911101783
"2801",0.719168911101783
"2802",0.719168911101783
"2803",0.719168911101783
"2804",0.719168911101783
"2805",0.719168911101783
"2806",0.739621857201766
"2807",0.739621857201766
"2808",0.739621857201766
"2809",0.739621857201766
"2810",0.739621857201766
"2811",0.739621857201766
"2812",0.739621857201766
"2813",0.739621857201766
"2814",0.739621857201766
"2815",0.739621857201766
"2816",0.739621857201766
"2817",0.739621857201766
"2818",0.739621857201766
"2819",0.739621857201766
"2820",0.739621857201766
"2821",0.739621857201766
"2822",0.739621857201766
"2823",0.739621857201766
"2824",0.855847276805183
"2825",0.855847276805183
"2826",0.855847276805183
"2827",0.855847276805183
"2828",0.855847276805183
"2829",0.855847276805183
"2830",0.855847276805183
"2831",0.855847276805183
"2832",0.855847276805183
"2833",0.855847276805183
"2834",0.855847276805183
"2835",0.855847276805183
"2836",0.855847276805183
"2837",0.855847276805183
"2838",0.855847276805183
"2839",0.855847276805183
"2840",0.855847276805183
"2841",0.855847276805183
"2842",0.855847276805183
"2843",0.855847276805183
"2844",0.855847276805183
"2845",0.864032908815996
"2846",0.864032908815996
"2847",0.864032908815996
"2848",0.864032908815996
"2849",0.864032908815996
"2850",0.864032908815996
"2851",0.864032908815996
"2852",0.864032908815996
"2853",0.864032908815996
"2854",0.864032908815996
"2855",0.864032908815996
"2856",0.864032908815996
"2857",0.864032908815996
"2858",0.864032908815996
"2859",0.820543897138023
"2860",0.820543897138023
"2861",0.820543897138023
"2862",0.820543897138023
"2863",0.820543897138023
"2864",0.820543897138023
"2865",0.820543897138023
"2866",0.820543897138023
"2867",0.820543897138023
"2868",0.820543897138023
"2869",0.820543897138023
"2870",0.820543897138023
"2871",0.820543897138023
"2872",0.820543897138023
"2873",0.820543897138023
"2874",0.820543897138023
"2875",0.820543897138023
"2876",0.820543897138023
"2877",0.820543897138023
"2878",0.820543897138023
"2879",0.820543897138023
"2880",0.794411803575587
"2881",0.794411803575587
"2882",0.794411803575587
"2883",0.794411803575587
"2884",0.794411803575587
"2885",0.794411803575587
"2886",0.794411803575587
"2887",0.794411803575587
"2888",0.794411803575587
"2889",0.794411803575587
"2890",0.794411803575587
"2891",0.794411803575587
"2892",0.794411803575587
"2893",0.794411803575587
"2894",0.794411803575587
"2895",0.794411803575587
"2896",0.794411803575587
"2897",0.794411803575587
"2898",0.794411803575587
"2899",0.794411803575587
"2900",0.758007416740583
"2901",0.758007416740583
"2902",0.758007416740583
"2903",0.758007416740583
"2904",0.758007416740583
"2905",0.758007416740583
"2906",0.758007416740583
"2907",0.758007416740583
"2908",0.758007416740583
"2909",0.758007416740583
"2910",0.758007416740583
"2911",0.758007416740583
"2912",0.758007416740583
"2913",0.758007416740583
"2914",0.758007416740583
"2915",0.758007416740583
"2916",0.758007416740583
"2917",0.758007416740583
"2918",0.758007416740583
"2919",0.754544010791744
"2920",0.754544010791744
"2921",0.754544010791744
"2922",0.754544010791744
"2923",0.754544010791744
"2924",0.754544010791744
"2925",0.754544010791744
"2926",0.754544010791744
"2927",0.754544010791744
"2928",0.754544010791744
"2929",0.754544010791744
"2930",0.754544010791744
"2931",0.754544010791744
"2932",0.754544010791744
"2933",0.754544010791744
"2934",0.754544010791744
"2935",0.754544010791744
"2936",0.754544010791744
"2937",0.754544010791744
"2938",0.736230741618565
"2939",0.736230741618565
"2940",0.736230741618565
"2941",0.736230741618565
"2942",0.736230741618565
"2943",0.736230741618565
"2944",0.736230741618565
"2945",0.736230741618565
"2946",0.736230741618565
"2947",0.736230741618565
"2948",0.736230741618565
"2949",0.736230741618565
"2950",0.736230741618565
"2951",0.736230741618565
"2952",0.736230741618565
"2953",0.736230741618565
"2954",0.736230741618565
"2955",0.736230741618565
"2956",0.736230741618565
"2957",0.736230741618565
"2958",0.736230741618565
"2959",0.736230741618565
"2960",0.712175786342774
"2961",0.712175786342774
"2962",0.712175786342774
"2963",0.712175786342774
"2964",0.712175786342774
"2965",0.712175786342774
"2966",0.712175786342774
"2967",0.712175786342774
"2968",0.712175786342774
"2969",0.712175786342774
"2970",0.712175786342774
"2971",0.712175786342774
"2972",0.712175786342774
"2973",0.712175786342774
"2974",0.712175786342774
"2975",0.712175786342774
"2976",0.712175786342774
"2977",0.712175786342774
"2978",0.712175786342774
"2979",0.712175786342774
"2980",0.712175786342774
"2981",0.712175786342774
"2982",0.755455563052174
"2983",0.755455563052174
"2984",0.755455563052174
"2985",0.755455563052174
"2986",0.755455563052174
"2987",0.755455563052174
"2988",0.755455563052174
"2989",0.755455563052174
"2990",0.755455563052174
"2991",0.755455563052174
"2992",0.755455563052174
"2993",0.755455563052174
"2994",0.755455563052174
"2995",0.755455563052174
"2996",0.755455563052174
"2997",0.755455563052174
"2998",0.755455563052174
"2999",0.755455563052174
"3000",0.755455563052174
"3001",0.730286746072524
"3002",0.730286746072524
"3003",0.730286746072524
"3004",0.730286746072524
"3005",0.730286746072524
"3006",0.730286746072524
"3007",0.730286746072524
"3008",0.730286746072524
"3009",0.730286746072524
"3010",0.730286746072524
"3011",0.730286746072524
"3012",0.730286746072524
"3013",0.730286746072524
"3014",0.730286746072524
"3015",0.730286746072524
"3016",0.730286746072524
"3017",0.730286746072524
"3018",0.730286746072524
"3019",0.712601603356403
"3020",0.712601603356403
"3021",0.712601603356403
"3022",0.712601603356403
"3023",0.712601603356403
"3024",0.712601603356403
"3025",0.712601603356403
"3026",0.712601603356403
"3027",0.712601603356403
"3028",0.712601603356403
"3029",0.712601603356403
"3030",0.712601603356403
"3031",0.712601603356403
"3032",0.712601603356403
"3033",0.712601603356403
"3034",0.712601603356403
"3035",0.712601603356403
"3036",0.712601603356403
"3037",0.712601603356403
"3038",0.712601603356403
"3039",0.688053002421495
"3040",0.688053002421495
"3041",0.688053002421495
"3042",0.688053002421495
"3043",0.688053002421495
"3044",0.688053002421495
"3045",0.688053002421495
"3046",0.688053002421495
"3047",0.688053002421495
"3048",0.688053002421495
"3049",0.688053002421495
"3050",0.688053002421495
"3051",0.688053002421495
"3052",0.688053002421495
"3053",0.688053002421495
"3054",0.688053002421495
"3055",0.688053002421495
"3056",0.688053002421495
"3057",0.688053002421495
"3058",0.688053002421495
"3059",0.688053002421495
"3060",0.670296436353312
"3061",0.670296436353312
"3062",0.670296436353312
"3063",0.670296436353312
"3064",0.670296436353312
"3065",0.670296436353312
"3066",0.670296436353312
"3067",0.670296436353312
"3068",0.670296436353312
"3069",0.670296436353312
"3070",0.670296436353312
"3071",0.670296436353312
"3072",0.670296436353312
"3073",0.670296436353312
"3074",0.670296436353312
"3075",0.655392392740482
"3076",0.655392392740482
"3077",0.655392392740482
"3078",0.655392392740482
"3079",0.655392392740482
"3080",0.655392392740482
"3081",0.655392392740482
"3082",0.655392392740482
"3083",0.655392392740482
"3084",0.655392392740482
"3085",0.655392392740482
"3086",0.655392392740482
"3087",0.655392392740482
"3088",0.655392392740482
"3089",0.655392392740482
"3090",0.655392392740482
"3091",0.655392392740482
"3092",0.655392392740482
"3093",0.655392392740482
"3094",0.725098468634664
"3095",0.725098468634664
"3096",0.725098468634664
"3097",0.725098468634664
"3098",0.725098468634664
"3099",0.725098468634664
"3100",0.725098468634664
"3101",0.725098468634664
"3102",0.725098468634664
"3103",0.725098468634664
"3104",0.725098468634664
"3105",0.725098468634664
"3106",0.725098468634664
"3107",0.725098468634664
"3108",0.725098468634664
"3109",0.725098468634664
"3110",0.725098468634664
"3111",0.725098468634664
"3112",0.725098468634664
"3113",0.725098468634664
"3114",0.725098468634664
"3115",0.725098468634664
"3116",3.95148306461193
"3117",3.95148306461193
"3118",3.95148306461193
"3119",3.95148306461193
"3120",3.95148306461193
"3121",3.95148306461193
"3122",3.95148306461193
"3123",3.95148306461193
"3124",3.95148306461193
"3125",3.95148306461193
"3126",3.95148306461193
"3127",3.95148306461193
"3128",3.95148306461193
"3129",3.95148306461193
"3130",3.95148306461193
"3131",3.95148306461193
"3132",3.95148306461193
"3133",3.95148306461193
"3134",3.95148306461193
"3135",3.95148306461193
"3136",3.89663179081375
"3137",3.89663179081375
"3138",3.89663179081375
"3139",3.89663179081375
"3140",3.89663179081375
"3141",3.89663179081375
"3142",3.89663179081375
"3143",3.89663179081375
"3144",3.89663179081375
"3145",3.89663179081375
"3146",3.89663179081375
"3147",3.89663179081375
"3148",3.89663179081375
"3149",3.89663179081375
"3150",3.89663179081375
"3151",3.89663179081375
"3152",3.89663179081375
"3153",3.31356566546325
"3154",3.31356566546325
"3155",3.31356566546325
"3156",3.31356566546325
"3157",3.31356566546325
"3158",3.31356566546325
"3159",3.31356566546325
"3160",3.31356566546325
"3161",3.31356566546325
"3162",3.31356566546325
"3163",3.31356566546325
"3164",3.31356566546325
"3165",3.31356566546325
"3166",3.31356566546325
"3167",3.31356566546325
"3168",3.31356566546325
"3169",3.31356566546325
"3170",3.31356566546325
"3171",3.31356566546325
"3172",3.31356566546325
"3173",3.08960708205947
"3174",3.08960708205947
"3175",3.08960708205947
"3176",3.08960708205947
"3177",3.08960708205947
"3178",3.08960708205947
"3179",3.08960708205947
"3180",3.08960708205947
"3181",3.08960708205947
"3182",3.08960708205947
"3183",3.08960708205947
"3184",3.08960708205947
"3185",3.08960708205947
"3186",3.08960708205947
"3187",3.08960708205947
"3188",3.08960708205947
"3189",3.08960708205947
"3190",3.08960708205947
"3191",3.08960708205947
"3192",3.08960708205947
"3193",3.08960708205947
"3194",3.08960708205947
"3195",2.53162792755269
"3196",2.53162792755269
"3197",2.53162792755269
"3198",2.53162792755269
"3199",2.53162792755269
"3200",2.53162792755269
"3201",2.53162792755269
"3202",2.53162792755269
"3203",2.53162792755269
"3204",2.53162792755269
"3205",2.53162792755269
"3206",2.53162792755269
"3207",2.53162792755269
"3208",2.53162792755269
"3209",2.53162792755269
"3210",2.53162792755269
"3211",2.53162792755269
"3212",2.53162792755269
"3213",2.53162792755269
"3214",2.53162792755269
"3215",2.53162792755269
"3216",2.07921640086955
"3217",2.07921640086955
"3218",2.07921640086955
"3219",2.07921640086955
"3220",2.07921640086955
"3221",2.07921640086955
"3222",2.07921640086955
"3223",2.07921640086955
"3224",2.07921640086955
"3225",2.07921640086955
"3226",2.07921640086955
"3227",2.07921640086955
"3228",2.07921640086955
"3229",2.07921640086955
"3230",2.07921640086955
"3231",2.07921640086955
"3232",2.07921640086955
"3233",2.07921640086955
"3234",2.07921640086955
"3235",2.07921640086955
"3236",2.07921640086955
"3237",1.93590938625323
"3238",1.93590938625323
"3239",1.93590938625323
"3240",1.93590938625323
"3241",1.93590938625323
"3242",1.93590938625323
"3243",1.93590938625323
"3244",1.93590938625323
"3245",1.93590938625323
"3246",1.93590938625323
"3247",1.93590938625323
"3248",1.93590938625323
"3249",1.93590938625323
"3250",1.93590938625323
"3251",1.93590938625323
"3252",1.93590938625323
"3253",1.75421080537271
"3254",1.75421080537271
"3255",1.75421080537271
"3256",1.75421080537271
"3257",1.75421080537271
"3258",1.75421080537271
"3259",1.75421080537271
"3260",1.75421080537271
"3261",1.75421080537271
"3262",1.75421080537271
"3263",1.75421080537271
"3264",1.75421080537271
"3265",1.75421080537271
"3266",1.75421080537271
"3267",1.75421080537271
"3268",1.75421080537271
"3269",1.75421080537271
"3270",1.75421080537271
"3271",1.75421080537271
"3272",1.75421080537271
"3273",1.56994143647423
"3274",1.56994143647423
"3275",1.56994143647423
"3276",1.56994143647423
"3277",1.56994143647423
"3278",1.56994143647423
"3279",1.56994143647423
"3280",1.56994143647423
"3281",1.56994143647423
"3282",1.56994143647423
"3283",1.56994143647423
"3284",1.56994143647423
"3285",1.56994143647423
"3286",1.56994143647423
"3287",1.56994143647423
"3288",1.56994143647423
"3289",1.56994143647423
"3290",1.56994143647423
"3291",1.56994143647423
"3292",1.56994143647423
"3293",1.56994143647423
