<svg id="mermaid-1595169179049" width=1200 xmlns="http://www.w3.org/2000/svg" height="100%" viewBox="0 0 784 364"><style>#mermaid-1595169179049 .label{font-family:'trebuchet ms', verdana, arial;font-family:var(--mermaid-font-family);color:#333}#mermaid-1595169179049 .label text{fill:#333}#mermaid-1595169179049 .node rect,#mermaid-1595169179049 .node circle,#mermaid-1595169179049 .node ellipse,#mermaid-1595169179049 .node polygon{fill:#ECECFF;stroke:#9370db;stroke-width:1px}#mermaid-1595169179049 .node .label{text-align:center}#mermaid-1595169179049 .node.clickable{cursor:pointer}#mermaid-1595169179049 .arrowheadPath{fill:#333}#mermaid-1595169179049 .edgePath .path{stroke:#333;stroke-width:1.5px}#mermaid-1595169179049 .edgeLabel{background-color:#e8e8e8;text-align:center}#mermaid-1595169179049 .cluster rect{fill:#ffffde;stroke:#aa3;stroke-width:1px}#mermaid-1595169179049 .cluster text{fill:#333}#mermaid-1595169179049 div.mermaidTooltip{position:absolute;text-align:center;max-width:200px;padding:2px;font-family:'trebuchet ms', verdana, arial;font-family:var(--mermaid-font-family);font-size:12px;background:#ffffde;border:1px solid #aa3;border-radius:2px;pointer-events:none;z-index:100}#mermaid-1595169179049 .actor{stroke:#ccf;fill:#ECECFF}#mermaid-1595169179049 text.actor{fill:#000;stroke:none}#mermaid-1595169179049 .actor-line{stroke:grey}#mermaid-1595169179049 .messageLine0{stroke-width:1.5;stroke-dasharray:'2 2';stroke:#333}#mermaid-1595169179049 .messageLine1{stroke-width:1.5;stroke-dasharray:'2 2';stroke:#333}#mermaid-1595169179049 #arrowhead{fill:#333}#mermaid-1595169179049 .sequenceNumber{fill:#fff}#mermaid-1595169179049 #sequencenumber{fill:#333}#mermaid-1595169179049 #crosshead path{fill:#333 !important;stroke:#333 !important}#mermaid-1595169179049 .messageText{fill:#333;stroke:none}#mermaid-1595169179049 .labelBox{stroke:#ccf;fill:#ECECFF}#mermaid-1595169179049 .labelText{fill:#000;stroke:none}#mermaid-1595169179049 .loopText{fill:#000;stroke:none}#mermaid-1595169179049 .loopLine{stroke-width:2;stroke-dasharray:'2 2';stroke:#ccf}#mermaid-1595169179049 .note{stroke:#aa3;fill:#fff5ad}#mermaid-1595169179049 .noteText{fill:black;stroke:none;font-family:'trebuchet ms', verdana, arial;font-family:var(--mermaid-font-family);font-size:14px}#mermaid-1595169179049 .activation0{fill:#f4f4f4;stroke:#666}#mermaid-1595169179049 .activation1{fill:#f4f4f4;stroke:#666}#mermaid-1595169179049 .activation2{fill:#f4f4f4;stroke:#666}#mermaid-1595169179049 .mermaid-main-font{font-family:"trebuchet ms", verdana, arial;font-family:var(--mermaid-font-family)}#mermaid-1595169179049 .section{stroke:none;opacity:0.2}#mermaid-1595169179049 .section0{fill:rgba(102,102,255,0.49)}#mermaid-1595169179049 .section2{fill:#fff400}#mermaid-1595169179049 .section1,#mermaid-1595169179049 .section3{fill:#fff;opacity:0.2}#mermaid-1595169179049 .sectionTitle0{fill:#333}#mermaid-1595169179049 .sectionTitle1{fill:#333}#mermaid-1595169179049 .sectionTitle2{fill:#333}#mermaid-1595169179049 .sectionTitle3{fill:#333}#mermaid-1595169179049 .sectionTitle{text-anchor:start;font-size:11px;text-height:14px;font-family:'trebuchet ms', verdana, arial;font-family:var(--mermaid-font-family)}#mermaid-1595169179049 .grid .tick{stroke:#d3d3d3;opacity:0.3;shape-rendering:crispEdges}#mermaid-1595169179049 .grid .tick text{font-family:'trebuchet ms', verdana, arial;font-family:var(--mermaid-font-family)}#mermaid-1595169179049 .grid path{stroke-width:0}#mermaid-1595169179049 .today{fill:none;stroke:red;stroke-width:2px}#mermaid-1595169179049 .task{stroke-width:2}#mermaid-1595169179049 .taskText{text-anchor:middle;font-family:'trebuchet ms', verdana, arial;font-family:var(--mermaid-font-family)}#mermaid-1595169179049 .taskText:not([font-size]){font-size:11px}#mermaid-1595169179049 .taskTextOutsideRight{fill:#000;text-anchor:start;font-size:11px;font-family:'trebuchet ms', verdana, arial;font-family:var(--mermaid-font-family)}#mermaid-1595169179049 .taskTextOutsideLeft{fill:#000;text-anchor:end;font-size:11px}#mermaid-1595169179049 .task.clickable{cursor:pointer}#mermaid-1595169179049 .taskText.clickable{cursor:pointer;fill:#003163 !important;font-weight:bold}#mermaid-1595169179049 .taskTextOutsideLeft.clickable{cursor:pointer;fill:#003163 !important;font-weight:bold}#mermaid-1595169179049 .taskTextOutsideRight.clickable{cursor:pointer;fill:#003163 !important;font-weight:bold}#mermaid-1595169179049 .taskText0,#mermaid-1595169179049 .taskText1,#mermaid-1595169179049 .taskText2,#mermaid-1595169179049 .taskText3{fill:#fff}#mermaid-1595169179049 .task0,#mermaid-1595169179049 .task1,#mermaid-1595169179049 .task2,#mermaid-1595169179049 .task3{fill:#8a90dd;stroke:#534fbc}#mermaid-1595169179049 .taskTextOutside0,#mermaid-1595169179049 .taskTextOutside2{fill:#000}#mermaid-1595169179049 .taskTextOutside1,#mermaid-1595169179049 .taskTextOutside3{fill:#000}#mermaid-1595169179049 .active0,#mermaid-1595169179049 .active1,#mermaid-1595169179049 .active2,#mermaid-1595169179049 .active3{fill:#bfc7ff;stroke:#534fbc}#mermaid-1595169179049 .activeText0,#mermaid-1595169179049 .activeText1,#mermaid-1595169179049 .activeText2,#mermaid-1595169179049 .activeText3{fill:#000 !important}#mermaid-1595169179049 .done0,#mermaid-1595169179049 .done1,#mermaid-1595169179049 .done2,#mermaid-1595169179049 .done3{stroke:grey;fill:#d3d3d3;stroke-width:2}#mermaid-1595169179049 .doneText0,#mermaid-1595169179049 .doneText1,#mermaid-1595169179049 .doneText2,#mermaid-1595169179049 .doneText3{fill:#000 !important}#mermaid-1595169179049 .crit0,#mermaid-1595169179049 .crit1,#mermaid-1595169179049 .crit2,#mermaid-1595169179049 .crit3{stroke:#f88;fill:red;stroke-width:2}#mermaid-1595169179049 .activeCrit0,#mermaid-1595169179049 .activeCrit1,#mermaid-1595169179049 .activeCrit2,#mermaid-1595169179049 .activeCrit3{stroke:#f88;fill:#bfc7ff;stroke-width:2}#mermaid-1595169179049 .doneCrit0,#mermaid-1595169179049 .doneCrit1,#mermaid-1595169179049 .doneCrit2,#mermaid-1595169179049 .doneCrit3{stroke:#f88;fill:#d3d3d3;stroke-width:2;cursor:pointer;shape-rendering:crispEdges}#mermaid-1595169179049 .milestone{transform:rotate(45deg) scale(0.8, 0.8)}#mermaid-1595169179049 .milestoneText{font-style:italic}#mermaid-1595169179049 .doneCritText0,#mermaid-1595169179049 .doneCritText1,#mermaid-1595169179049 .doneCritText2,#mermaid-1595169179049 .doneCritText3{fill:#000 !important}#mermaid-1595169179049 .activeCritText0,#mermaid-1595169179049 .activeCritText1,#mermaid-1595169179049 .activeCritText2,#mermaid-1595169179049 .activeCritText3{fill:#000 !important}#mermaid-1595169179049 .titleText{text-anchor:middle;font-size:18px;fill:#000;font-family:'trebuchet ms', verdana, arial;font-family:var(--mermaid-font-family)}#mermaid-1595169179049 g.classGroup text{fill:#9370db;stroke:none;font-family:'trebuchet ms', verdana, arial;font-family:var(--mermaid-font-family);font-size:10px}#mermaid-1595169179049 g.classGroup text .title{font-weight:bolder}#mermaid-1595169179049 g.classGroup rect{fill:#ECECFF;stroke:#9370db}#mermaid-1595169179049 g.classGroup line{stroke:#9370db;stroke-width:1}#mermaid-1595169179049 .classLabel .box{stroke:none;stroke-width:0;fill:#ECECFF;opacity:0.5}#mermaid-1595169179049 .classLabel .label{fill:#9370db;font-size:10px}#mermaid-1595169179049 .relation{stroke:#9370db;stroke-width:1;fill:none}#mermaid-1595169179049 #compositionStart{fill:#9370db;stroke:#9370db;stroke-width:1}#mermaid-1595169179049 #compositionEnd{fill:#9370db;stroke:#9370db;stroke-width:1}#mermaid-1595169179049 #aggregationStart{fill:#ECECFF;stroke:#9370db;stroke-width:1}#mermaid-1595169179049 #aggregationEnd{fill:#ECECFF;stroke:#9370db;stroke-width:1}#mermaid-1595169179049 #dependencyStart{fill:#9370db;stroke:#9370db;stroke-width:1}#mermaid-1595169179049 #dependencyEnd{fill:#9370db;stroke:#9370db;stroke-width:1}#mermaid-1595169179049 #extensionStart{fill:#9370db;stroke:#9370db;stroke-width:1}#mermaid-1595169179049 #extensionEnd{fill:#9370db;stroke:#9370db;stroke-width:1}#mermaid-1595169179049 .commit-id,#mermaid-1595169179049 .commit-msg,#mermaid-1595169179049 .branch-label{fill:lightgrey;color:lightgrey;font-family:'trebuchet ms', verdana, arial;font-family:var(--mermaid-font-family)}#mermaid-1595169179049 .pieTitleText{text-anchor:middle;font-size:25px;fill:#000;font-family:'trebuchet ms', verdana, arial;font-family:var(--mermaid-font-family)}#mermaid-1595169179049 .slice{font-family:'trebuchet ms', verdana, arial;font-family:var(--mermaid-font-family)}#mermaid-1595169179049 g.stateGroup text{fill:#9370db;stroke:none;font-size:10px;font-family:'trebuchet ms', verdana, arial;font-family:var(--mermaid-font-family)}#mermaid-1595169179049 g.stateGroup text{fill:#9370db;stroke:none;font-size:10px}#mermaid-1595169179049 g.stateGroup .state-title{font-weight:bolder;fill:#000}#mermaid-1595169179049 g.stateGroup rect{fill:#ECECFF;stroke:#9370db}#mermaid-1595169179049 g.stateGroup line{stroke:#9370db;stroke-width:1}#mermaid-1595169179049 .transition{stroke:#9370db;stroke-width:1;fill:none}#mermaid-1595169179049 .stateGroup .composit{fill:white;border-bottom:1px}#mermaid-1595169179049 .state-note{stroke:#aa3;fill:#fff5ad}#mermaid-1595169179049 .state-note text{fill:black;stroke:none;font-size:10px}#mermaid-1595169179049 .stateLabel .box{stroke:none;stroke-width:0;fill:#ECECFF;opacity:0.5}#mermaid-1595169179049 .stateLabel text{fill:#000;font-size:10px;font-weight:bold;font-family:'trebuchet ms', verdana, arial;font-family:var(--mermaid-font-family)}:root{--mermaid-font-family: '"trebuchet ms", verdana, arial';--mermaid-font-family: "Comic Sans MS", "Comic Sans", cursive}

:root { --mermaid-font-family: "trebuchet ms", verdana, arial;}</style><style>#mermaid-1595169179049 {
    color: rgb(0, 0, 0);
    font: 16px "trebuchet ms", verdana, arial;
  }</style><g></g><g class="grid" transform="translate(75, 314)" fill="none" font-size="10" font-family="sans-serif" text-anchor="middle"><path class="domain" stroke="currentColor" d="M0.5,-279V0.5H634.5V-279"></path><g class="tick" opacity="1" transform="translate(0.5,0)"><line stroke="currentColor" y2="-279"></line><text fill="#000" y="3" dy="1em" stroke="none" font-size="10" style="text-anchor: middle;">2020-02</text></g><g class="tick" opacity="1" transform="translate(40.5,0)"><line stroke="currentColor" y2="-279"></line><text fill="#000" y="3" dy="1em" stroke="none" font-size="10" style="text-anchor: middle;">2020-03</text></g><g class="tick" opacity="1" transform="translate(82.5,0)"><line stroke="currentColor" y2="-279"></line><text fill="#000" y="3" dy="1em" stroke="none" font-size="10" style="text-anchor: middle;">2020-04</text></g><g class="tick" opacity="1" transform="translate(124.5,0)"><line stroke="currentColor" y2="-279"></line><text fill="#000" y="3" dy="1em" stroke="none" font-size="10" style="text-anchor: middle;">2020-05</text></g><g class="tick" opacity="1" transform="translate(166.5,0)"><line stroke="currentColor" y2="-279"></line><text fill="#000" y="3" dy="1em" stroke="none" font-size="10" style="text-anchor: middle;">2020-06</text></g><g class="tick" opacity="1" transform="translate(207.5,0)"><line stroke="currentColor" y2="-279"></line><text fill="#000" y="3" dy="1em" stroke="none" font-size="10" style="text-anchor: middle;">2020-07</text></g><g class="tick" opacity="1" transform="translate(250.5,0)"><line stroke="currentColor" y2="-279"></line><text fill="#000" y="3" dy="1em" stroke="none" font-size="10" style="text-anchor: middle;">2020-08</text></g><g class="tick" opacity="1" transform="translate(292.5,0)"><line stroke="currentColor" y2="-279"></line><text fill="#000" y="3" dy="1em" stroke="none" font-size="10" style="text-anchor: middle;">2020-09</text></g><g class="tick" opacity="1" transform="translate(333.5,0)"><line stroke="currentColor" y2="-279"></line><text fill="#000" y="3" dy="1em" stroke="none" font-size="10" style="text-anchor: middle;">2020-10</text></g><g class="tick" opacity="1" transform="translate(376.5,0)"><line stroke="currentColor" y2="-279"></line><text fill="#000" y="3" dy="1em" stroke="none" font-size="10" style="text-anchor: middle;">2020-11</text></g><g class="tick" opacity="1" transform="translate(417.5,0)"><line stroke="currentColor" y2="-279"></line><text fill="#000" y="3" dy="1em" stroke="none" font-size="10" style="text-anchor: middle;">2020-12</text></g><g class="tick" opacity="1" transform="translate(460.5,0)"><line stroke="currentColor" y2="-279"></line><text fill="#000" y="3" dy="1em" stroke="none" font-size="10" style="text-anchor: middle;">2021-01</text></g><g class="tick" opacity="1" transform="translate(502.5,0)"><line stroke="currentColor" y2="-279"></line><text fill="#000" y="3" dy="1em" stroke="none" font-size="10" style="text-anchor: middle;">2021-02</text></g><g class="tick" opacity="1" transform="translate(541.5,0)"><line stroke="currentColor" y2="-279"></line><text fill="#000" y="3" dy="1em" stroke="none" font-size="10" style="text-anchor: middle;">2021-03</text></g><g class="tick" opacity="1" transform="translate(583.5,0)"><line stroke="currentColor" y2="-279"></line><text fill="#000" y="3" dy="1em" stroke="none" font-size="10" style="text-anchor: middle;">2021-04</text></g><g class="tick" opacity="1" transform="translate(624.5,0)"><line stroke="currentColor" y2="-279"></line><text fill="#000" y="3" dy="1em" stroke="none" font-size="10" style="text-anchor: middle;">2021-05</text></g></g><g><rect x="0" y="48" width="746.5" height="24" class="section section0"></rect><rect x="0" y="72" width="746.5" height="24" class="section section0"></rect><rect x="0" y="96" width="746.5" height="24" class="section section0"></rect><rect x="0" y="120" width="746.5" height="24" class="section section1"></rect><rect x="0" y="144" width="746.5" height="24" class="section section2"></rect><rect x="0" y="168" width="746.5" height="24" class="section section2"></rect><rect x="0" y="192" width="746.5" height="24" class="section section3"></rect><rect x="0" y="216" width="746.5" height="24" class="section section3"></rect><rect x="0" y="240" width="746.5" height="24" class="section section3"></rect><rect x="0" y="264" width="746.5" height="24" class="section section3"></rect><rect x="0" y="288" width="746.5" height="24" class="section section3"></rect></g><g><rect id="a1" rx="3" ry="3" x="75" y="50" width="62" height="20" transform-origin="106px 60px" class="task done0 "></rect><rect id="a2" rx="3" ry="3" x="134" y="74" width="41" height="20" transform-origin="154.5px 84px" class="task done0 "></rect><rect id="a3" rx="3" ry="3" x="177" y="98" width="61" height="20" transform-origin="207.5px 108px" class="task active0 "></rect><rect id="a4" rx="3" ry="3" x="312" y="122" width="10" height="20" transform-origin="317px 132px" class="task crit1 "></rect><rect id="a4" rx="3" ry="3" x="325" y="146" width="82" height="20" transform-origin="366px 156px" class="task task2 "></rect><rect id="a6" rx="3" ry="3" x="408" y="170" width="62" height="20" transform-origin="439px 180px" class="task task2 "></rect><rect id="task1" rx="3" ry="3" x="492" y="194" width="10" height="20" transform-origin="497px 204px" class="task crit3 "></rect><rect id="task2" rx="3" ry="3" x="505" y="218" width="61" height="20" transform-origin="535.5px 228px" class="task task3 "></rect><rect id="task3" rx="3" ry="3" x="616" y="242" width="41" height="20" transform-origin="636.5px 252px" class="task task3 "></rect><rect id="task4" rx="3" ry="3" x="658" y="266" width="41" height="20" transform-origin="678.5px 276px" class="task task3 "></rect><rect id="task5" rx="3" ry="3" x="699" y="290" width="10" height="20" transform-origin="704px 300px" class="task crit3 "></rect><text id="a1-text" font-size="11" x="106" y="63.5" text-height="20" class=" taskText taskText0  doneText0 width-44">阅读文献                  </text><text id="a2-text" font-size="11" x="180" y="87.5" text-height="20" class=" taskTextOutsideRight taskTextOutside0  doneText0 width-114.046875">讨论研究方向,拟定题目      </text><text id="a3-text" font-size="11" x="243" y="111.5" text-height="20" class=" taskTextOutsideRight taskTextOutside0 activeText0 width-147.046875">写开题报告,在导师指导下修改 </text><text id="a4-text" font-size="11" x="327" y="135.5" text-height="20" class=" taskTextOutsideRight taskTextOutside1  critText1 width-202.046875">开题答辩,根据答辩老师建议修改论文框架    </text><text id="a4-text" font-size="11" x="412" y="159.5" text-height="20" class=" taskTextOutsideRight taskTextOutside2  width-121">理解论文所用模型及理论    </text><text id="a6-text" font-size="11" x="475" y="183.5" text-height="20" class=" taskTextOutsideRight taskTextOutside2  width-66">撰写论文初稿             </text><text id="task1-text" font-size="11" x="507" y="207.5" text-height="20" class=" taskTextOutsideRight taskTextOutside3  critText3 width-33">预答辩      </text><text id="task2-text" font-size="11" x="500" y="231.5" text-height="20" class=" taskTextOutsideLeft taskTextOutside3 ">根据答辩老师的建议修改论文完成二稿</text><text id="task3-text" font-size="11" x="662" y="255.5" text-height="20" class=" taskTextOutsideRight taskTextOutside3  width-77">论文查重并修改</text><text id="task4-text" font-size="11" x="653" y="279.5" text-height="20" class=" taskTextOutsideLeft taskTextOutside3 ">论文盲审并进一步修改论文完成终稿</text><text id="task5-text" font-size="11" x="694" y="303.5" text-height="20" class=" taskTextOutsideLeft taskTextOutside3  critText3">论文答辩</text></g><g><text x="10" y="86" class="sectionTitle sectionTitle0">准备阶段</text><text x="10" y="134" class="sectionTitle sectionTitle1">开题答辩阶段</text><text x="10" y="170" class="sectionTitle sectionTitle2">撰写阶段</text><text x="10" y="254" class="sectionTitle sectionTitle3">答辩阶段</text></g><g class="today"><line x1="308" x2="308" y1="25" y2="339" class="today"></line></g><text x="392" y="25" class="titleText">论文写作计划及措施</text></svg>