PWD c:/2020-03-Whh-thesis/proposal/style
INPUT c:/texlive/2019/texmf.cnf
INPUT c:/texlive/2019/texmf-dist/web2c/texmf.cnf
INPUT c:/texlive/2019/texmf-var/web2c/pdftex/pdflatex.fmt
INPUT c:/2020-03-Whh-thesis/proposal/style/beamer-template.tex
OUTPUT c:\2020-03-Whh-thesis\proposal\style/beamer-template.log
